-5.21819760E-1	-9.88764599E-2
-5.20039260E-1	-9.87363873E-2
-5.18204506E-1	-9.85894097E-2
-5.16468395E-1	-9.84419389E-2
-5.14682962E-1	-9.82969342E-2
-5.12197167E-1	-9.80937303E-2
-5.09957978E-1	-9.79487255E-2
-5.07842093E-1	-9.77982955E-2
-5.06027068E-1	-9.76518111E-2
-5.04424124E-1	-9.75053267E-2
-5.02811316E-1	-9.73682134E-2
-5.00596788E-1	-9.72167969E-2
-4.98900134E-1	-9.70678464E-2
-4.96744792E-1	-9.68769729E-2
-4.95077730E-1	-9.67221039E-2
-4.93282434E-1	-9.65884430E-2
-4.91531526E-1	-9.64424519E-2
-4.89780619E-1	-9.62930082E-2
-4.87955729E-1	-9.61351799E-2
-4.86367582E-1	-9.59990530E-2
-4.84813960E-1	-9.58550347E-2
-4.82471196E-1	-9.56616951E-2
-4.80547664E-1	-9.55137311E-2
-4.78786892E-1	-9.53489978E-2
-4.77134628E-1	-9.52148438E-2
-4.75585937E-1	-9.50634272E-2
-4.73761048E-1	-9.49174361E-2
-4.71995344E-1	-9.47640467E-2
-4.70313486E-1	-9.46116438E-2
-4.68163076E-1	-9.44232363E-2
-4.66609454E-1	-9.42871094E-2
-4.64952257E-1	-9.41381589E-2
-4.63388771E-1	-9.39926610E-2
-4.61785827E-1	-9.38506155E-2
-4.60015191E-1	-9.37016651E-2
-4.58392519E-1	-9.35551807E-2
-4.56695865E-1	-9.34082031E-2
-4.54491201E-1	-9.32123974E-2
-4.52764954E-1	-9.30703520E-2
-4.51221196E-1	-9.29199219E-2
-4.49509746E-1	-9.27778764E-2
-4.47911735E-1	-9.26279396E-2
-4.46289062E-1	-9.24844145E-2
-4.44730508E-1	-9.23354640E-2
-4.42964804E-1	-9.21924321E-2
-4.40819326E-1	-9.19985993E-2
-4.39068419E-1	-9.18402778E-2
-4.37406289E-1	-9.16937934E-2
-4.35645518E-1	-9.15408973E-2
-4.34215199E-1	-9.14003314E-2
-4.32656645E-1	-9.12538471E-2
-4.31103022E-1	-9.11118016E-2
-4.29302794E-1	-9.09598919E-2
-4.27241162E-1	-9.07714844E-2
-4.25519847E-1	-9.06210543E-2
-4.23926768E-1	-9.04716106E-2
-4.22328756E-1	-9.03374566E-2
-4.20582781E-1	-9.01904790E-2
-4.18994634E-1	-9.00439946E-2
-4.17500197E-1	-8.98965238E-2
-4.15986032E-1	-8.97515191E-2
-4.13840554E-1	-8.95581795E-2
-4.12168561E-1	-8.94087358E-2
-4.10605074E-1	-8.92617582E-2
-4.09011995E-1	-8.91167535E-2
-4.07290680E-1	-8.89692827E-2
-4.05786379E-1	-8.88242779E-2
-4.04084793E-1	-8.86674361E-2
-4.02698864E-1	-8.85209517E-2
-4.00602707E-1	-8.83246528E-2
-3.99029356E-1	-8.81860598E-2
-3.97490530E-1	-8.80415483E-2
-3.95892519E-1	-8.78935843E-2
-3.94240254E-1	-8.77461135E-2
-3.92657039E-1	-8.75981495E-2
-3.91137942E-1	-8.74526515E-2
-3.89608980E-1	-8.73051807E-2
-3.87281013E-1	-8.71167732E-2
-3.85742187E-1	-8.69683160E-2
-3.84282276E-1	-8.68247909E-2
-3.82684265E-1	-8.66802794E-2
-3.81189828E-1	-8.65328086E-2
-3.79488242E-1	-8.63863242E-2
-3.77944484E-1	-8.62452652E-2
-3.76410590E-1	-8.60948351E-2
-3.74181266E-1	-8.59005090E-2
-3.72602983E-1	-8.57515586E-2
-3.71128275E-1	-8.55991556E-2
-3.69579585E-1	-8.54531645E-2
-3.68045691E-1	-8.53086529E-2
-3.66423019E-1	-8.51626618E-2
-3.64805279E-1	-8.50166706E-2
-3.63296046E-1	-8.48716659E-2
-3.61234414E-1	-8.46763534E-2
-3.59656132E-1	-8.45288826E-2
-3.58058120E-1	-8.43809186E-2
-3.56519295E-1	-8.42329545E-2
-3.54960740E-1	-8.40899227E-2
-3.53382457E-1	-8.39444247E-2
-3.51833767E-1	-8.38018860E-2
-3.50329467E-1	-8.36583610E-2
-3.48213581E-1	-8.34625552E-2
-3.46699416E-1	-8.33175505E-2
-3.45081676E-1	-8.31671204E-2
-3.43444208E-1	-8.30221157E-2
-3.41856061E-1	-8.28721788E-2
-3.39843750E-1	-8.27281605E-2
-3.38082978E-1	-8.25767440E-2
-3.36376460E-1	-8.24273003E-2
-3.34171796E-1	-8.22364268E-2
-3.32588581E-1	-8.20874763E-2
-3.31034959E-1	-8.19414852E-2
-3.29422151E-1	-8.17959872E-2
-3.27829072E-1	-8.16465436E-2
-3.26196536E-1	-8.15020320E-2
-3.23760062E-1	-8.13550545E-2
-3.22221236E-1	-8.12075836E-2
-3.19982047E-1	-8.10157236E-2
-3.18453086E-1	-8.08648003E-2
-3.16963581E-1	-8.07207820E-2
-3.15483941E-1	-8.05787366E-2
-3.13841540E-1	-8.04322522E-2
-3.12302715E-1	-8.02837950E-2
-3.10734296E-1	-8.01358310E-2
-3.09318774E-1	-7.99903330E-2
-3.07267006E-1	-7.97994594E-2
-3.05733112E-1	-7.96480429E-2
-3.04238676E-1	-7.95000789E-2
-3.02724511E-1	-7.93501420E-2
-3.01244871E-1	-7.92046441E-2
-2.99824416E-1	-7.90621054E-2
-2.98339844E-1	-7.89116753E-2
-2.96850339E-1	-7.87691367E-2
-2.94788707E-1	-7.85738242E-2
-2.93146307E-1	-7.84233941E-2
-2.91696259E-1	-7.82793758E-2
-2.90147569E-1	-7.81304253E-2
-2.88618608E-1	-7.79839410E-2
-2.87134036E-1	-7.78433752E-2
-2.85644531E-1	-7.77013297E-2
-2.84184620E-1	-7.75573114E-2
-2.82113123E-1	-7.73610125E-2
-2.80465791E-1	-7.72140349E-2
-2.78902304E-1	-7.70719894E-2
-2.77437461E-1	-7.69200797E-2
-2.75849313E-1	-7.67740885E-2
-2.73930713E-1	-7.66256313E-2
-2.72021978E-1	-7.64717487E-2
-2.68076271E-1	-7.63267440E-2
-2.66162603E-1	-7.61304451E-2
-2.64732284E-1	-7.59874132E-2
-2.63306897E-1	-7.58389560E-2
-2.61876578E-1	-7.56934580E-2
-2.60446259E-1	-7.55459872E-2
-2.59104719E-1	-7.53970368E-2
-2.57733586E-1	-7.52530185E-2
-2.56357521E-1	-7.51104798E-2
-2.54399463E-1	-7.49131944E-2
-2.52949416E-1	-7.47632576E-2
-2.51499369E-1	-7.46300900E-2
-2.50064118E-1	-7.44939631E-2
-2.48599274E-1	-7.43538905E-2
-2.47450087E-1	-7.42064197E-2
-2.46014836E-1	-7.40574692E-2
-2.44392164E-1	-7.39055595E-2
-2.35011245E-1	-7.37156723E-2
-2.33437895E-1	-7.35583373E-2
-2.32140743E-1	-7.34059343E-2
-2.30902778E-1	-7.32525450E-2
-2.29625355E-1	-7.31134588E-2
-2.28545218E-1	-7.29753591E-2
-2.27223406E-1	-7.28199968E-2
-2.26093947E-1	-7.26685803E-2
-2.24495936E-1	-7.24801728E-2
-2.23188920E-1	-7.23341817E-2
-2.21946023E-1	-7.21817787E-2
-2.20737650E-1	-7.20367740E-2
-2.19410906E-1	-7.18843711E-2
-2.18281447E-1	-7.17388731E-2
-2.17068142E-1	-7.16269137E-2
-2.16002801E-1	-7.14779632E-2
-2.14404790E-1	-7.12885693E-2
-2.13230942E-1	-7.11292614E-2
-2.11968316E-1	-7.09886955E-2
-2.10759943E-1	-7.08417180E-2
-2.09531842E-1	-7.06937539E-2
-2.08397451E-1	-7.05472696E-2
-2.07060843E-1	-7.03924006E-2
-2.05886995E-1	-7.02409841E-2
-2.04298848E-1	-7.00506037E-2
-2.03134864E-1	-6.99105311E-2
-2.01926491E-1	-6.97581282E-2
-2.00688526E-1	-6.96111506E-2
-1.99401239E-1	-6.94691051E-2
-1.98281645E-1	-6.93206479E-2
-1.97009154E-1	-6.91593671E-2
-1.95840238E-1	-6.90212674E-2
-1.94291548E-1	-6.88210227E-2
-1.92999329E-1	-6.86735519E-2
-1.91889599E-1	-6.85349590E-2
-1.90612176E-1	-6.83884746E-2
-1.89472854E-1	-6.82518545E-2
-1.88244752E-1	-6.81083294E-2
-1.87041312E-1	-6.79618450E-2
-1.85260811E-1	-6.78099353E-2
-1.83697325E-1	-6.76215278E-2
-1.82572798E-1	-6.74676452E-2
-1.81255919E-1	-6.73088305E-2
-1.80042614E-1	-6.71648122E-2
-1.78908223E-1	-6.70276989E-2
-1.77754104E-1	-6.68822009E-2
-1.76595052E-1	-6.67347301E-2
-1.75357086E-1	-6.65867661E-2
-1.73867582E-1	-6.63949061E-2
-1.72654277E-1	-6.62429964E-2
-1.71440972E-1	-6.60970052E-2
-1.70276989E-1	-6.59470683E-2
-1.69019295E-1	-6.57907197E-2
-1.67968750E-1	-6.56378235E-2
-1.66868884E-1	-6.55105745E-2
-1.65640783E-1	-6.53818458E-2
-1.64111821E-1	-6.51904790E-2
-1.63041548E-1	-6.50410354E-2
-1.61897293E-1	-6.48886324E-2
-1.60679056E-1	-6.47470802E-2
-1.59623580E-1	-6.46020754E-2
-1.58385614E-1	-6.44511521E-2
-1.57256155E-1	-6.43022017E-2
-1.56136561E-1	-6.41463463E-2
-1.54676649E-1	-6.39638573E-2
-1.53783933E-1	-6.38163865E-2
-1.52555832E-1	-6.36689157E-2
-1.51465830E-1	-6.35214449E-2
-1.50415286E-1	-6.33734809E-2
-1.49359809E-1	-6.32294626E-2
-1.48166233E-1	-6.30819918E-2
-1.47056503E-1	-6.29330414E-2
-1.45566998E-1	-6.27308239E-2
-1.44526318E-1	-6.25833531E-2
-1.43456045E-1	-6.24452533E-2
-1.42277265E-1	-6.23037011E-2
-1.41187263E-1	-6.21636285E-2
-1.40146583E-1	-6.20171441E-2
-1.39120699E-1	-6.18736190E-2
-1.37956716E-1	-6.17251618E-2
-1.36491872E-1	-6.15308357E-2
-1.35322956E-1	-6.13863242E-2
-1.34262547E-1	-6.12363873E-2
-1.33064039E-1	-6.10874369E-2
-1.31969105E-1	-6.09429253E-2
-1.30903764E-1	-6.07989070E-2
-1.29843355E-1	-6.06504498E-2
-1.28802675E-1	-6.05049519E-2
-1.27401949E-1	-6.03096394E-2
-1.26272491E-1	-6.01606889E-2
-1.25157828E-1	-6.00142045E-2
-1.24062895E-1	-5.98677202E-2
-1.23027146E-1	-5.97202494E-2
-1.22114702E-1	-5.95737650E-2
-1.21054293E-1	-5.94272806E-2
-1.20087595E-1	-5.92832623E-2
-1.18598090E-1	-5.90988005E-2
-1.17443971E-1	-5.89513297E-2
-1.16289852E-1	-5.88018860E-2
-1.15239307E-1	-5.86558949E-2
-1.14203559E-1	-5.85108902E-2
-1.13093829E-1	-5.83614465E-2
-1.11949574E-1	-5.82100300E-2
-1.10869437E-1	-5.80655185E-2
-1.09463778E-1	-5.78780974E-2
-1.08423098E-1	-5.77281605E-2
-1.07412011E-1	-5.75816761E-2
-1.06322009E-1	-5.74287800E-2
-1.05172822E-1	-5.72852549E-2
-1.04122277E-1	-5.71363045E-2
-1.03047072E-1	-5.69932726E-2
-1.02021188E-1	-5.68433357E-2
-1.00566209E-1	-5.66490096E-2
-9.94120896E-2	-5.64995660E-2
-9.83023595E-2	-5.63540680E-2
-9.72172901E-2	-5.62085701E-2
-9.61716777E-2	-5.60660314E-2
-9.49386443E-2	-5.59220131E-2
-9.37943892E-2	-5.57755287E-2
-9.27685054E-2	-5.56295376E-2
-9.13381866E-2	-5.54376776E-2
-9.02284564E-2	-5.52877407E-2
-8.90003551E-2	-5.51373106E-2
-8.79202178E-2	-5.49893466E-2
-8.68154198E-2	-5.48487808E-2
-8.56563684E-2	-5.46983507E-2
-8.45170455E-2	-5.45553188E-2
-8.34862295E-2	-5.44063684E-2
-8.19128788E-2	-5.42130287E-2
-8.06798453E-2	-5.40640783E-2
-7.95553188E-2	-5.39151278E-2
-7.83025568E-2	-5.37701231E-2
-7.66404277E-2	-5.36206795E-2
-7.53482086E-2	-5.34717290E-2
-7.42088857E-2	-5.33341225E-2
-7.28969381E-2	-5.31871449E-2
-7.12939946E-2	-5.29898595E-2
-6.98932686E-2	-5.28571851E-2
-6.86947601E-2	-5.27131668E-2
-6.73137626E-2	-5.25681621E-2
-6.59179688E-2	-5.24231574E-2
-6.43347538E-2	-5.22707544E-2
-6.25493213E-2	-5.21193379E-2
-6.09661064E-2	-5.19654553E-2
-5.87713068E-2	-5.17819800E-2
-5.72374132E-2	-5.16364820E-2
-5.57183160E-2	-5.14924637E-2
-5.41498974E-2	-5.13356218E-2
-5.23200758E-2	-5.11812461E-2
-5.05445076E-2	-5.10426531E-2
-4.84187579E-2	-5.08932094E-2
-4.66234612E-2	-5.07486979E-2
-4.40094302E-2	-5.05504261E-2
-4.15729561E-2	-5.03985164E-2
-3.82388336E-2	-5.02540049E-2
-3.56395991E-2	-5.01090002E-2
-3.22808160E-2	-4.99654751E-2
-4.63620581E-4	-4.98199771E-2
-6.41177399E-5	-4.96769452E-2
-3.45249369E-5	-4.95270084E-2
-3.45249369E-5	-4.93346551E-2
-6.90498737E-5	-4.91871843E-2
-6.90498737E-5	-4.90352746E-2
-1.13439078E-4	-4.88858310E-2
-2.46606692E-5	-4.87432923E-2
-5.42534722E-5	-4.86046993E-2
-4.43892045E-5	-4.84503235E-2
-4.43892045E-5	-4.83077849E-2
-6.90498737E-5	-4.81109927E-2
-3.94570707E-5	-4.79640152E-2
-8.87784091E-5	-4.78244358E-2
-5.91856061E-5	-4.76666075E-2
-6.41177399E-5	-4.75265349E-2
-4.43892045E-5	-4.73726523E-2
-4.93213384E-5	-4.72325797E-2
-4.43892045E-5	-4.70841225E-2
-9.37105429E-5	-4.68878235E-2
-5.91856061E-5	-4.67438052E-2
-4.43892045E-5	-4.66293797E-2
-6.41177399E-5	-4.64794429E-2
-6.90498737E-5	-4.63299992E-2
-5.91856061E-5	-4.61864741E-2
-8.38462753E-5	-4.60301255E-2
-6.90498737E-5	-4.58831479E-2
-5.42534722E-5	-4.56967132E-2
-1.03574811E-4	-4.55531881E-2
-5.42534722E-5	-4.54007852E-2
-6.41177399E-5	-4.52597262E-2
-4.93213384E-5	-4.51127486E-2
-5.42534722E-5	-4.49647846E-2
-3.94570707E-5	-4.48173138E-2
-6.41177399E-5	-4.46737887E-2
-4.43892045E-5	-4.44720644E-2
-6.41177399E-5	-4.43310054E-2
-1.13439078E-4	-4.41751499E-2
-4.93213384E-5	-4.40375434E-2
-4.43892045E-5	-4.38900726E-2
-4.43892045E-5	-4.37450679E-2
-3.45249369E-5	-4.36005563E-2
-3.45249369E-5	-4.34599905E-2
-7.89141414E-5	-4.32686237E-2
-5.91856061E-5	-4.31172072E-2
-7.89141414E-5	-4.29662839E-2
-6.41177399E-5	-4.28168403E-2
-7.89141414E-5	-4.26767677E-2
-5.42534722E-5	-4.25322562E-2
-3.45249369E-5	-4.23833057E-2
-3.94570707E-5	-4.22383010E-2
-6.41177399E-5	-4.20474274E-2
-9.37105429E-5	-4.18984770E-2
-5.91856061E-5	-4.17529790E-2
-3.94570707E-5	-4.16064946E-2
-3.94570707E-5	-4.14496528E-2
-4.43892045E-5	-4.13076073E-2
-5.91856061E-5	-4.11626026E-2
-4.43892045E-5	-4.10166114E-2
-7.89141414E-5	-4.08252446E-2
-6.90498737E-5	-4.06762942E-2
-5.42534722E-5	-4.05312895E-2
-2.46606692E-5	-4.03852983E-2
-6.90498737E-5	-4.02442393E-2
-4.43892045E-5	-4.00977549E-2
-5.42534722E-5	-3.99468316E-2
-9.86426768E-5	-3.98008404E-2
-6.41177399E-5	-3.96109533E-2
-5.42534722E-5	-3.94624961E-2
-3.94570707E-5	-3.93165049E-2
-5.91856061E-5	-3.91690341E-2
-4.43892045E-5	-3.90269886E-2
-9.37105429E-5	-3.88824771E-2
-7.89141414E-5	-3.87320470E-2
-2.46606692E-5	-3.85840830E-2
-6.41177399E-5	-3.83892637E-2
-4.93213384E-5	-3.82408065E-2
-6.41177399E-5	-3.80987610E-2
-7.39820076E-5	-3.79493174E-2
-4.93213384E-5	-3.78057923E-2
-8.87784091E-5	-3.76573351E-2
-1.13439078E-4	-3.75093711E-2
-6.90498737E-5	-3.73643663E-2
-6.90498737E-5	-3.72075245E-2
-5.91856061E-5	-3.70531487E-2
-7.39820076E-5	-3.68968000E-2
-5.42534722E-5	-3.67414378E-2
-6.41177399E-5	-3.66151752E-2
-1.08506944E-4	-3.64701705E-2
-6.90498737E-5	-3.63217132E-2
-3.94570707E-5	-3.61801610E-2
-6.41177399E-5	-3.59868213E-2
-5.42534722E-5	-3.58413234E-2
-8.87784091E-5	-3.56874408E-2
-5.91856061E-5	-3.55399700E-2
-6.41177399E-5	-3.53870739E-2
-4.43892045E-5	-3.52400963E-2
-6.90498737E-5	-3.51024897E-2
-4.43892045E-5	-3.49574850E-2
-4.93213384E-5	-3.47626657E-2
-6.90498737E-5	-3.46156881E-2
-4.93213384E-5	-3.44692038E-2
-6.41177399E-5	-3.43207465E-2
-6.41177399E-5	-3.41777146E-2
-3.94570707E-5	-3.40406013E-2
-4.43892045E-5	-3.38911577E-2
-7.89141414E-5	-3.37422072E-2
-3.45249369E-5	-3.35518269E-2
-8.38462753E-5	-3.34038628E-2
-6.41177399E-5	-3.32573785E-2
-5.42534722E-5	-3.31128670E-2
-4.93213384E-5	-3.29683554E-2
-4.93213384E-5	-3.28198982E-2
-7.89141414E-5	-3.26734138E-2
-8.87784091E-5	-3.25244634E-2
-1.08506944E-4	-3.23296441E-2
-5.42534722E-5	-3.21821733E-2
-8.38462753E-5	-3.20366753E-2
-8.38462753E-5	-3.18911774E-2
-2.95928030E-5	-3.17441998E-2
-6.41177399E-5	-3.15991951E-2
-7.89141414E-5	-3.14512311E-2
-6.41177399E-5	-3.13042535E-2
-2.95928030E-5	-3.11114070E-2
-3.45249369E-5	-3.09693616E-2
-4.93213384E-5	-3.08179451E-2
-4.43892045E-5	-3.06694878E-2
-3.94570707E-5	-3.05289220E-2
-3.94570707E-5	-3.03829309E-2
-1.03574811E-4	-3.02354601E-2
-5.42534722E-5	-3.00870028E-2
-6.41177399E-5	-2.99005682E-2
-4.43892045E-5	-2.97506313E-2
-4.43892045E-5	-2.96011877E-2
-7.39820076E-5	-2.94517440E-2
-7.39820076E-5	-2.93037800E-2
-4.43892045E-5	-2.91572956E-2
-1.13439078E-4	-2.90147569E-2
-5.91856061E-5	-2.88712318E-2
-6.90498737E-5	-2.86764126E-2
-6.41177399E-5	-2.85304214E-2
-3.45249369E-5	-2.83809777E-2
-1.97285354E-5	-2.82315341E-2
-1.13439078E-4	-2.80899818E-2
-8.38462753E-5	-2.79405382E-2
-7.89141414E-5	-2.78108231E-2
-4.43892045E-5	-2.76618726E-2
-5.91856061E-5	-2.74783973E-2
-2.95928030E-5	-2.73353654E-2
-4.43892045E-5	-2.71844421E-2
-9.86426768E-5	-2.70423966E-2
-4.43892045E-5	-2.68914733E-2
-2.95928030E-5	-2.67479482E-2
-5.91856061E-5	-2.66029435E-2
-4.43892045E-5	-2.64495541E-2
-3.94570707E-5	-2.62517756E-2
-4.93213384E-5	-2.60998658E-2
-1.52896149E-4	-2.59676847E-2
-3.45249369E-5	-2.58138021E-2
-4.43892045E-5	-2.56752091E-2
-6.90498737E-5	-2.55306976E-2
-9.86426768E-6	-2.53787879E-2
-6.90498737E-5	-2.52313171E-2
-7.89141414E-5	-2.50414299E-2
-4.43892045E-5	-2.48836016E-2
-3.94570707E-5	-2.47588187E-2
-2.95928030E-5	-2.46123343E-2
-8.38462753E-5	-2.44673295E-2
-8.38462753E-5	-2.43242977E-2
-6.90498737E-5	-2.41763336E-2
-3.45249369E-5	-2.40313289E-2
-4.93213384E-5	-2.38365096E-2
-3.45249369E-5	-2.36900253E-2
-4.43892045E-5	-2.35425545E-2
-9.37105429E-5	-2.33955769E-2
-3.94570707E-5	-2.32481061E-2
-3.45249369E-5	-2.30996488E-2
-5.91856061E-5	-2.29541509E-2
-6.90498737E-5	-2.28081597E-2
-7.89141414E-5	-2.26187658E-2
-4.93213384E-5	-2.24658696E-2
-3.45249369E-5	-2.23213581E-2
-4.93213384E-5	-2.21753670E-2
-6.90498737E-5	-2.20278961E-2
-6.90498737E-5	-2.18814118E-2
-8.38462753E-5	-2.17324613E-2
-5.42534722E-5	-2.15938684E-2
-5.91856061E-5	-2.14133523E-2
-4.43892045E-5	-2.12639086E-2
-8.38462753E-5	-2.11193971E-2
-9.37105429E-5	-2.09704467E-2
-7.39820076E-5	-2.08239623E-2
-6.41177399E-5	-2.06814236E-2
-8.87784091E-5	-2.05319800E-2
-5.42534722E-5	-2.03825363E-2
-5.42534722E-5	-2.01808120E-2
-3.94570707E-5	-2.00348209E-2
-1.23303346E-4	-1.98962279E-2
-6.41177399E-5	-1.97492503E-2
-6.41177399E-5	-1.96057252E-2
-4.43892045E-5	-1.94636798E-2
-6.41177399E-5	-1.93083176E-2
-5.91856061E-5	-1.91578875E-2
-9.86426768E-5	-1.89694800E-2
-7.39820076E-5	-1.88160906E-2
-4.43892045E-5	-1.86671402E-2
-2.46606692E-5	-1.85172033E-2
-2.95928030E-5	-1.83983389E-2
-6.90498737E-5	-1.82508681E-2
-3.45249369E-5	-1.81058633E-2
-5.91856061E-5	-1.79598722E-2
-5.42534722E-5	-1.77655461E-2
-6.90498737E-5	-1.76195549E-2
-6.41177399E-5	-1.74789891E-2
-4.93213384E-5	-1.73186948E-2
-6.90498737E-5	-1.71712240E-2
-8.87784091E-5	-1.70242464E-2
-6.90498737E-5	-1.68866398E-2
-6.41177399E-5	-1.67376894E-2
-5.91856061E-5	-1.65458294E-2
-5.91856061E-5	-1.63988518E-2
-8.87784091E-5	-1.62543403E-2
-7.39820076E-5	-1.61029238E-2
-8.87784091E-5	-1.59593987E-2
-4.93213384E-5	-1.58079822E-2
-4.93213384E-5	-1.56511403E-2
-7.39820076E-5	-1.54997238E-2
-5.91856061E-5	-1.53349905E-2
-5.91856061E-5	-1.51909722E-2
-4.93213384E-5	-1.50449811E-2
-1.08506944E-4	-1.48975103E-2
-4.93213384E-5	-1.47505327E-2
-7.39820076E-5	-1.46060211E-2
-6.90498737E-5	-1.44580571E-2
-6.90498737E-5	-1.43120660E-2
-1.03574811E-4	-1.41172467E-2
-9.37105429E-5	-1.39668166E-2
-6.41177399E-5	-1.38223051E-2
-9.37105429E-5	-1.36768071E-2
-3.94570707E-5	-1.35283499E-2
-7.39820076E-5	-1.33828520E-2
-1.18371212E-4	-1.32388336E-2
-3.45249369E-5	-1.30893900E-2
-5.42534722E-5	-1.28990096E-2
-6.41177399E-5	-1.27490728E-2
-7.39820076E-5	-1.25966698E-2
-5.42534722E-5	-1.24516651E-2
-7.89141414E-5	-1.23081400E-2
-6.90498737E-5	-1.21838502E-2
-4.43892045E-5	-1.20299676E-2
-5.91856061E-5	-1.18903883E-2
-2.95928030E-5	-1.16926097E-2
-5.91856061E-5	-1.15495778E-2
-9.37105429E-5	-1.13981613E-2
-3.94570707E-5	-1.12541430E-2
-4.93213384E-5	-1.11017401E-2
-4.43892045E-5	-1.09567353E-2
-6.41177399E-5	-1.08146899E-2
-4.93213384E-5	-1.06662326E-2
-9.37105429E-5	-1.04768387E-2
-7.39820076E-5	-1.03283815E-2
-3.94570707E-5	-1.01809107E-2
-8.87784091E-5	-1.00309738E-2
-4.43892045E-5	-9.88744871E-3
-4.43892045E-5	-9.73849826E-3
-9.86426768E-5	-9.58066998E-3
-6.41177399E-5	-9.43763810E-3
-4.43892045E-5	-9.25416272E-3
-6.41177399E-5	-9.13036616E-3
-4.43892045E-5	-8.98585464E-3
-2.46606692E-5	-8.83690420E-3
-8.87784091E-5	-8.69436553E-3
-1.18371212E-4	-8.54738794E-3
-5.91856061E-5	-8.39843750E-3
-8.38462753E-5	-8.25343277E-3
-4.43892045E-5	-8.05072206E-3
-4.93213384E-5	-7.90769018E-3
-1.23303346E-4	-7.76219223E-3
-3.45249369E-5	-7.62063999E-3
-4.43892045E-5	-7.46873027E-3
-3.94570707E-5	-7.32421875E-3
-4.43892045E-5	-7.17921402E-3
-4.93213384E-5	-7.03174321E-3
-8.38462753E-5	-6.83889678E-3
-8.38462753E-5	-6.68994634E-3
-4.43892045E-5	-6.53113163E-3
-5.91856061E-5	-6.38612689E-3
-3.45249369E-5	-6.25197285E-3
-1.13439078E-4	-6.10400884E-3
-3.94570707E-5	-5.96245660E-3
-7.89141414E-5	-5.81498580E-3
-5.91856061E-5	-5.62065972E-3
-5.91856061E-5	-5.47368213E-3
-6.90498737E-5	-5.32719776E-3
-9.37105429E-5	-5.17923374E-3
-4.93213384E-5	-5.03176294E-3
-5.91856061E-5	-4.88379893E-3
-5.42534722E-5	-4.74273990E-3
-7.39820076E-5	-4.59428267E-3
-4.43892045E-5	-4.40044981E-3
-1.33167614E-4	-4.25347222E-3
-8.87784091E-5	-4.10649463E-3
-7.89141414E-5	-3.96001026E-3
-3.94570707E-5	-3.81401910E-3
-5.42534722E-5	-3.66556187E-3
-5.42534722E-5	-3.51710464E-3
-1.33167614E-4	-3.37160669E-3
-7.39820076E-5	-3.17974669E-3
-6.90498737E-5	-3.03276910E-3
-4.43892045E-5	-2.88579151E-3
-5.91856061E-5	-2.75163747E-3
-5.42534722E-5	-2.60712595E-3
-7.89141414E-5	-2.46162800E-3
-5.91856061E-5	-2.31169113E-3
-4.43892045E-5	-2.16076783E-3
-7.39820076E-5	-1.96545533E-3
-6.41177399E-5	-1.81847775E-3
-8.38462753E-5	-1.67445944E-3
-6.90498737E-5	-1.53241398E-3
-6.90498737E-5	-1.38543640E-3
-5.91856061E-5	-1.23500631E-3
-6.90498737E-5	-1.09148122E-3
-5.91856061E-5	-9.43517203E-4
-5.91856061E-5	-7.49191130E-4
-6.41177399E-5	-5.99747475E-4
-7.89141414E-5	-4.47344539E-4
-5.91856061E-5	-3.02339804E-4
-6.90498737E-5	-1.62267203E-4
-3.45249369E-5	-1.77556818E-5
-1.03574811E-4	1.32674400E-4
-3.94570707E-5	2.68308081E-4
-2.95928030E-5	4.65593434E-4
-4.43892045E-5	6.14050663E-4
-2.95928030E-5	7.64480745E-4
-6.90498737E-5	9.16883681E-4
-8.38462753E-5	1.06583412E-3
-3.45249369E-5	1.20886600E-3
-5.91856061E-5	1.34992503E-3
-3.94570707E-5	1.54277146E-3
-2.95928030E-5	1.68974905E-3
-6.90498737E-5	1.83869949E-3
-4.93213384E-5	1.98123816E-3
-2.95928030E-5	2.13166824E-3
-5.42534722E-5	2.27864583E-3
-5.42534722E-5	2.42759628E-3
-1.47964015E-5	2.58098564E-3
-4.43892045E-5	2.77580492E-3
-8.38462753E-5	2.91538431E-3
-4.93213384E-5	3.05940262E-3
-5.42534722E-5	3.21032592E-3
-4.93213384E-5	3.35434422E-3
-8.87784091E-5	3.47419508E-3
-3.45249369E-5	3.61574732E-3
-4.93213384E-5	3.76568419E-3
-9.37105429E-5	3.96691525E-3
-3.45249369E-5	4.12178425E-3
-3.94570707E-5	4.26382970E-3
-2.46606692E-5	4.39650410E-3
-5.42534722E-5	4.54742740E-3
-3.94570707E-5	4.69045928E-3
-4.93213384E-5	4.83546402E-3
-1.13439078E-4	4.98293482E-3
-5.42534722E-5	5.18022017E-3
-1.47964015E-5	5.32621133E-3
-2.46606692E-5	5.48403961E-3
-3.94570707E-5	5.63348327E-3
-3.94570707E-5	5.77898122E-3
-2.46606692E-5	5.91412169E-3
-3.94570707E-5	6.06257891E-3
-6.41177399E-5	6.20709044E-3
-5.42534722E-5	6.40092330E-3
-6.41177399E-5	6.54099590E-3
-5.42534722E-5	6.68698706E-3
-3.45249369E-5	6.83445786E-3
-3.94570707E-5	6.98044902E-3
-8.38462753E-5	7.13137232E-3
-4.93213384E-5	7.27292456E-3
-2.46606692E-5	7.41891572E-3
-2.46606692E-5	7.61225537E-3
-3.94570707E-5	7.75923295E-3
-3.45249369E-5	7.90522412E-3
-5.42534722E-5	8.05318813E-3
-2.46606692E-5	8.20213857E-3
-4.43892045E-5	8.34911616E-3
-2.46606692E-5	8.49658696E-3
-2.46606692E-5	8.64849669E-3
-5.91856061E-5	8.84134312E-3
-5.42534722E-5	8.98141572E-3
-5.42534722E-5	9.12839331E-3
-9.86426768E-5	9.27487768E-3
-3.45249369E-5	9.42234848E-3
-2.95928030E-5	9.57031250E-3
-4.43892045E-5	9.70545297E-3
-5.42534722E-5	9.85489662E-3
-5.91856061E-5	1.00457702E-2
-6.41177399E-5	1.01971867E-2
-4.93213384E-5	1.03426847E-2
-2.95928030E-5	1.04857165E-2
-3.94570707E-5	1.06297348E-2
-4.43892045E-5	1.07796717E-2
-5.42534722E-5	1.09281289E-2
-5.91856061E-5	1.10741201E-2
-1.47964015E-4	1.12659801E-2
-3.94570707E-5	1.14169034E-2
-2.95928030E-5	1.15643742E-2
-5.91856061E-5	1.17138179E-2
-4.43892045E-5	1.18598090E-2
-3.94570707E-5	1.20013613E-2
-5.42534722E-5	1.21503117E-2
-7.39820076E-5	1.22953164E-2
-1.18371212E-4	1.24881629E-2
-2.95928030E-5	1.26361269E-2
-8.38462753E-5	1.27515388E-2
-3.94570707E-5	1.29009825E-2
-4.93213384E-5	1.30533854E-2
-4.93213384E-5	1.31988834E-2
-5.42534722E-5	1.33404356E-2
-7.89141414E-5	1.34795218E-2
-5.42534722E-5	1.36713818E-2
-3.45249369E-5	1.38208254E-2
-1.47964015E-5	1.39668166E-2
-4.93213384E-5	1.41157670E-2
-4.93213384E-5	1.42661971E-2
-4.43892045E-5	1.44151476E-2
-4.93213384E-5	1.45611387E-2
-7.39820076E-5	1.47135417E-2
-4.43892045E-5	1.49108270E-2
-2.95928030E-5	1.50430082E-2
-3.45249369E-5	1.51939315E-2
-4.43892045E-5	1.53418955E-2
-3.94570707E-5	1.54829545E-2
-3.94570707E-5	1.56279593E-2
-1.03574811E-4	1.57803622E-2
-4.93213384E-5	1.59115570E-2
-3.45249369E-5	1.61068695E-2
-3.94570707E-5	1.62558199E-2
-4.43892045E-5	1.64018111E-2
-4.93213384E-5	1.65463226E-2
-2.95928030E-5	1.66933002E-2
-1.97285354E-5	1.68407710E-2
-3.45249369E-5	1.69852825E-2
-8.87784091E-5	1.71332465E-2
-4.43892045E-5	1.73270794E-2
-5.42534722E-5	1.74735638E-2
-5.91856061E-5	1.76215278E-2
-4.43892045E-5	1.77709714E-2
-4.93213384E-5	1.79189354E-2
-5.91856061E-5	1.80609809E-2
-2.46606692E-5	1.82069721E-2
-4.93213384E-5	1.83559225E-2
-6.41177399E-5	1.85472893E-2
-2.95928030E-5	1.86967330E-2
-5.42534722E-5	1.88432173E-2
-6.90498737E-5	1.89867424E-2
-4.93213384E-5	1.91322404E-2
-6.90498737E-5	1.92792180E-2
-6.90498737E-5	1.94222498E-2
-4.93213384E-5	1.95702139E-2
-7.89141414E-5	1.97591146E-2
-3.94570707E-5	1.99075718E-2
-2.46606692E-5	2.00560290E-2
-5.91856061E-5	2.02015270E-2
-7.39820076E-5	2.03529435E-2
-3.45249369E-5	2.04994279E-2
-1.97285354E-5	2.06459122E-2
-6.41177399E-5	2.07943695E-2
-3.45249369E-5	2.09872159E-2
-4.43892045E-5	2.11312342E-2
-5.42534722E-5	2.12796914E-2
-7.89141414E-5	2.14237098E-2
-3.94570707E-5	2.15687145E-2
-7.39820076E-5	2.17166785E-2
-3.45249369E-5	2.18641493E-2
-7.39820076E-5	2.20111269E-2
-8.87784091E-5	2.21842448E-2
-1.97285354E-5	2.23336884E-2
-3.45249369E-5	2.24811592E-2
-3.94570707E-5	2.26212318E-2
-2.46606692E-5	2.27617977E-2
-1.97285354E-5	2.29127210E-2
-7.39820076E-5	2.30572325E-2
-3.94570707E-5	2.31987847E-2
-7.39820076E-5	2.33965633E-2
-8.87784091E-5	2.35479798E-2
-6.41177399E-5	2.36984099E-2
-4.93213384E-5	2.38562382E-2
-4.93213384E-5	2.39972972E-2
-6.90498737E-5	2.41329309E-2
-4.43892045E-5	2.42833610E-2
-2.95928030E-5	2.44254064E-2
-6.41177399E-5	2.46182528E-2
-4.93213384E-5	2.47642440E-2
-6.41177399E-5	2.49220723E-2
-1.97285354E-5	2.50655974E-2
-3.94570707E-5	2.52145478E-2
-4.43892045E-5	2.53398240E-2
-4.43892045E-5	2.54828559E-2
-3.94570707E-5	2.56268742E-2
-3.45249369E-5	2.58216935E-2
-5.91856061E-5	2.59691643E-2
-5.91856061E-5	2.61166351E-2
-4.93213384E-5	2.62626263E-2
-9.37105429E-5	2.64086174E-2
-3.94570707E-5	2.65560882E-2
-4.43892045E-5	2.67010930E-2
-4.93213384E-5	2.68520163E-2
-2.46606692E-5	2.70443695E-2
-3.45249369E-5	2.71888810E-2
-4.43892045E-5	2.73398043E-2
-5.91856061E-5	2.74848090E-2
-7.89141414E-5	2.76303070E-2
-1.08506944E-4	2.77772846E-2
-4.93213384E-5	2.79222893E-2
-5.42534722E-5	2.80697601E-2
-2.46606692E-5	2.82640862E-2
-2.95928030E-5	2.83977470E-2
-4.93213384E-5	2.85476839E-2
-4.93213384E-5	2.86897293E-2
-4.93213384E-5	2.88367069E-2
-3.94570707E-5	2.89772727E-2
-9.37105429E-5	2.91217842E-2
-5.91856061E-5	2.92741872E-2
-5.91856061E-5	2.94640743E-2
-4.43892045E-5	2.96149976E-2
-5.91856061E-5	2.97619752E-2
-5.42534722E-5	2.99188171E-2
-4.43892045E-5	3.00692472E-2
-4.43892045E-5	3.01955098E-2
-3.94570707E-5	3.03508720E-2
-8.38462753E-5	3.04939039E-2
-1.47964015E-4	3.06847775E-2
-4.43892045E-5	3.08416193E-2
-6.41177399E-5	3.09856376E-2
-4.43892045E-5	3.11311356E-2
-2.95928030E-5	3.12795928E-2
-3.45249369E-5	3.14329822E-2
-3.45249369E-5	3.15617109E-2
-4.93213384E-5	3.16988242E-2
-6.90498737E-5	3.18911774E-2
-9.37105429E-5	3.20401278E-2
-4.93213384E-5	3.21831597E-2
-3.45249369E-5	3.23316170E-2
-5.91856061E-5	3.24800742E-2
-2.46606692E-5	3.26231061E-2
-1.47964015E-5	3.27755090E-2
-3.45249369E-5	3.29338305E-2
-2.95928030E-5	3.31168127E-2
-7.39820076E-5	3.32578717E-2
-5.42534722E-5	3.34004104E-2
-3.94570707E-5	3.35528133E-2
-2.95928030E-5	3.37002841E-2
-4.93213384E-5	3.38512074E-2
-9.86426768E-6	3.39942393E-2
-4.43892045E-5	3.41367779E-2
-2.95928030E-5	3.43375158E-2
-6.90498737E-5	3.44909051E-2
-4.93213384E-5	3.46171678E-2
-4.43892045E-5	3.47601997E-2
-4.93213384E-5	3.49071772E-2
-2.95928030E-5	3.50526752E-2
-3.45249369E-5	3.51996528E-2
-4.93213384E-5	3.53476168E-2
-4.93213384E-5	3.55384904E-2
-4.43892045E-5	3.56864544E-2
-8.38462753E-5	3.58363913E-2
-1.28235480E-4	3.59833688E-2
-2.95928030E-5	3.61308396E-2
-5.42534722E-5	3.62738715E-2
-4.93213384E-5	3.64198627E-2
-1.47964015E-5	3.65683199E-2
-3.45249369E-5	3.67596867E-2
-4.43892045E-5	3.69081439E-2
-3.94570707E-5	3.70541351E-2
-3.45249369E-5	3.72020991E-2
-3.45249369E-5	3.73520360E-2
-5.91856061E-5	3.75000000E-2
-1.08506944E-4	3.76430319E-2
-2.46606692E-5	3.77683081E-2
-4.93213384E-5	3.79626342E-2
-4.93213384E-5	3.81017203E-2
-5.91856061E-5	3.82496843E-2
-3.45249369E-5	3.84011009E-2
-3.94570707E-5	3.85441327E-2
-2.46606692E-5	3.86925900E-2
-8.87784091E-5	3.88435133E-2
-3.45249369E-5	3.90003551E-2
-5.42534722E-5	3.91941880E-2
-2.95928030E-5	3.93278488E-2
-3.94570707E-5	3.94713739E-2
-5.91856061E-5	3.96237768E-2
-5.91856061E-5	3.97722341E-2
-1.47964015E-5	3.99177320E-2
-7.39820076E-5	4.00607639E-2
-7.89141414E-5	4.02082347E-2
-6.90498737E-5	4.04040404E-2
-3.45249369E-5	4.05623619E-2
-3.94570707E-5	4.06999684E-2
-4.93213384E-5	4.08425071E-2
-4.43892045E-5	4.09638376E-2
-5.42534722E-5	4.11098288E-2
-4.43892045E-5	4.12577928E-2
-1.28235480E-4	4.14047704E-2
-4.93213384E-5	4.15971236E-2
-7.39820076E-5	4.17441012E-2
-9.86426768E-6	4.18945312E-2
-3.94570707E-5	4.20454545E-2
-4.93213384E-5	4.21919389E-2
-7.39820076E-5	4.23305319E-2
-1.03574811E-4	4.24780027E-2
-8.87784091E-5	4.26264599E-2
-4.43892045E-5	4.28188131E-2
-1.97285354E-5	4.29682568E-2
-2.95928030E-5	4.31147412E-2
-3.45249369E-5	4.32607323E-2
-5.91856061E-5	4.34116556E-2
-9.86426768E-5	4.35606061E-2
-4.43892045E-5	4.37026515E-2
-3.94570707E-5	4.38471630E-2
-6.41177399E-5	4.40355705E-2
-3.94570707E-5	4.41840278E-2
-6.41177399E-5	4.43300189E-2
-5.42534722E-5	4.44769965E-2
-9.86426768E-5	4.46229877E-2
-4.43892045E-5	4.47689789E-2
-3.94570707E-5	4.49154632E-2
-3.45249369E-5	4.50644137E-2
-4.43892045E-5	4.52582465E-2
-2.46606692E-5	4.54047309E-2
-3.45249369E-5	4.55507221E-2
-2.95928030E-5	4.56976997E-2
-5.42534722E-5	4.58417180E-2
-1.18371212E-4	4.59911616E-2
-5.42534722E-5	4.61356731E-2
-3.94570707E-5	4.62846236E-2
-4.43892045E-5	4.64764836E-2
-6.41177399E-5	4.66264205E-2
-5.91856061E-5	4.67743845E-2
-2.46606692E-5	4.69179096E-2
-3.94570707E-5	4.70653804E-2
-1.18371212E-4	4.71916430E-2
-5.42534722E-5	4.73401002E-2
-3.45249369E-5	4.74836253E-2
-4.43892045E-5	4.76784446E-2
-6.41177399E-5	4.78219697E-2
-4.93213384E-5	4.79827573E-2
-5.42534722E-5	4.81322009E-2
-3.45249369E-5	4.82776989E-2
-1.03574811E-4	4.84093868E-2
-7.39820076E-5	4.85573509E-2
-4.43892045E-5	4.87117266E-2
-3.45249369E-5	4.89006274E-2
-5.91856061E-5	4.90500710E-2
-4.43892045E-5	4.91945825E-2
-4.43892045E-5	4.93450126E-2
-2.95928030E-5	4.94954427E-2
-1.03574811E-4	4.96458728E-2
-2.95928030E-5	4.97893979E-2
-6.41177399E-5	4.99309501E-2
-3.45249369E-5	5.01282355E-2
-2.95928030E-5	5.02446338E-2
-4.43892045E-5	5.03911182E-2
-3.94570707E-5	5.05366162E-2
-3.94570707E-5	5.06845802E-2
-6.41177399E-5	5.08266256E-2
-4.93213384E-5	5.09805082E-2
-2.95928030E-5	5.11314315E-2
-3.45249369E-5	5.13242779E-2
-3.45249369E-5	5.14668166E-2
-3.94570707E-5	5.16108349E-2
-9.86426768E-5	5.17587989E-2
-5.91856061E-5	5.19052833E-2
-3.45249369E-5	5.20493016E-2
-5.42534722E-5	5.21947996E-2
-4.93213384E-5	5.23476957E-2
-2.95928030E-5	5.25444878E-2
-4.43892045E-5	5.26929451E-2
-9.86426768E-5	5.28325245E-2
-3.94570707E-5	5.29765428E-2
-4.43892045E-5	5.31240136E-2
-7.89141414E-5	5.32700047E-2
-2.95928030E-5	5.34081045E-2
-4.43892045E-5	5.35536024E-2
-4.93213384E-5	5.37489149E-2
-5.91856061E-5	5.38963857E-2
-5.91856061E-5	5.40448430E-2
-4.43892045E-5	5.41928070E-2
-3.94570707E-5	5.43368253E-2
-4.93213384E-5	5.44823232E-2
-3.94570707E-5	5.46283144E-2
-7.89141414E-5	5.47738123E-2
-1.47964015E-5	5.49691248E-2
-4.43892045E-5	5.51151160E-2
-8.38462753E-5	5.52606140E-2
-3.94570707E-5	5.54070983E-2
-2.95928030E-5	5.55585148E-2
-7.39820076E-5	5.57054924E-2
-2.95928030E-5	5.58509904E-2
-3.45249369E-5	5.59955019E-2
-4.43892045E-5	5.61878551E-2
-5.91856061E-5	5.63348327E-2
-1.97285354E-5	5.64823035E-2
-4.93213384E-5	5.66312539E-2
-5.91856061E-5	5.67698469E-2
-5.42534722E-5	5.69168245E-2
-4.43892045E-5	5.70687342E-2
-2.95928030E-5	5.72157118E-2
-2.46606692E-5	5.74095447E-2
-5.42534722E-5	5.75530698E-2
-8.87784091E-5	5.76975813E-2
-4.93213384E-5	5.78346946E-2
-3.45249369E-5	5.79752604E-2
-2.95928030E-5	5.81163194E-2
-5.42534722E-5	5.82687224E-2
-5.42534722E-5	5.84206321E-2
-5.42534722E-5	5.86154514E-2
-8.87784091E-5	5.87668679E-2
-8.38462753E-5	5.89118726E-2
-3.45249369E-5	5.90504656E-2
-5.42534722E-5	5.92004025E-2
-1.97285354E-5	5.93424479E-2
-4.43892045E-5	5.94943576E-2
-3.94570707E-5	5.96176610E-2
-4.43892045E-5	5.98075481E-2
-5.42534722E-5	5.99555122E-2
-4.93213384E-5	6.01054490E-2
-2.46606692E-5	6.02543995E-2
-4.43892045E-5	6.04003906E-2
-4.93213384E-5	6.05424361E-2
-3.94570707E-5	6.06904001E-2
-4.43892045E-5	6.08339252E-2
-2.95928030E-5	6.10287445E-2
-4.93213384E-5	6.11767085E-2
-1.23303346E-4	6.13236861E-2
-3.94570707E-5	6.14691840E-2
-2.46606692E-5	6.16186277E-2
-4.43892045E-5	6.17636324E-2
-1.97285354E-5	6.19086372E-2
-4.93213384E-5	6.20580808E-2
-5.42534722E-5	6.22494476E-2
-3.45249369E-5	6.23964252E-2
-2.95928030E-5	6.25434028E-2
-7.39820076E-5	6.26889007E-2
-6.41177399E-5	6.28112176E-2
-5.42534722E-5	6.29606613E-2
-1.97285354E-5	6.31012271E-2
-3.94570707E-5	6.32590554E-2
-4.93213384E-5	6.34474629E-2
-2.95928030E-5	6.35845762E-2
-4.93213384E-5	6.37364860E-2
-2.95928030E-5	6.38795178E-2
-4.93213384E-5	6.40215633E-2
-5.42534722E-5	6.41670612E-2
-1.03574811E-4	6.43145320E-2
-4.43892045E-5	6.44629893E-2
-4.93213384E-5	6.46612610E-2
-6.90498737E-5	6.48156368E-2
-3.45249369E-5	6.49552162E-2
-2.46606692E-5	6.50972617E-2
-3.94570707E-5	6.52447325E-2
-3.94570707E-5	6.53862847E-2
-2.95928030E-5	6.55298098E-2
-9.37105429E-5	6.56797467E-2
-1.23303346E-4	6.58632221E-2
-4.93213384E-5	6.60042811E-2
-5.42534722E-5	6.61571772E-2
-2.95928030E-5	6.63041548E-2
-4.43892045E-5	6.64506392E-2
-1.97285354E-5	6.65926847E-2
-3.45249369E-5	6.67406487E-2
-5.42534722E-5	6.68881195E-2
-1.38099747E-4	6.70804727E-2
-3.45249369E-5	6.72274503E-2
-6.90498737E-5	6.73714686E-2
-5.91856061E-5	6.75218987E-2
-4.43892045E-5	6.76693695E-2
-5.42534722E-5	6.78163471E-2
-3.45249369E-5	6.79613518E-2
-2.95928030E-5	6.81083294E-2
-1.47964015E-4	6.82932844E-2
-2.95928030E-5	6.84476602E-2
-6.41177399E-5	6.85921717E-2
-5.91856061E-5	6.87352036E-2
-4.93213384E-5	6.88841540E-2
-2.95928030E-5	6.90143624E-2
-3.45249369E-5	6.91726839E-2
-5.91856061E-5	6.93181818E-2
-5.91856061E-5	6.95026436E-2
-2.95928030E-5	6.96471551E-2
-3.45249369E-5	6.97936395E-2
-4.43892045E-5	6.99361782E-2
-4.93213384E-5	7.00811829E-2
-6.41177399E-5	7.02247080E-2
-4.43892045E-5	7.03761245E-2
-7.39820076E-5	7.05201428E-2
-4.43892045E-5	7.07228535E-2
-4.43892045E-5	7.08722972E-2
-4.43892045E-5	7.10108902E-2
-3.94570707E-5	7.11534288E-2
-3.45249369E-5	7.12949811E-2
-1.97285354E-5	7.14380129E-2
-1.97285354E-5	7.15899227E-2
-7.39820076E-5	7.17349274E-2
-4.93213384E-5	7.19272806E-2
-2.95928030E-5	7.20752446E-2
-7.89141414E-5	7.22118647E-2
-2.46606692E-5	7.23588423E-2
-4.93213384E-5	7.25053267E-2
-1.47964015E-5	7.26473722E-2
-2.95928030E-5	7.27953362E-2
-5.91856061E-5	7.29393545E-2
-9.86426768E-6	7.31346670E-2
-4.93213384E-5	7.32816446E-2
-9.86426768E-6	7.34266493E-2
-1.47964015E-5	7.35716540E-2
0.00000000E+0	7.37201113E-2
-4.93213384E-6	7.38725142E-2
0.00000000E+0	7.40135732E-2
-3.94570707E-5	7.41610440E-2
4.93213384E-6	7.43499448E-2
-9.86426768E-6	7.44959359E-2
-4.93213384E-6	7.46453796E-2
4.93213384E-6	7.47928504E-2
-9.86426768E-6	7.49339094E-2
9.86426768E-6	7.50843395E-2
4.93213384E-6	7.52332899E-2
2.46606692E-5	7.53491951E-2
9.86426768E-6	7.55395754E-2
2.95928030E-5	7.56821141E-2
4.93213384E-6	7.58261324E-2
1.97285354E-5	7.59736032E-2
3.94570707E-5	7.61181147E-2
9.37105429E-5	7.62655855E-2
2.46606692E-5	7.64120699E-2
7.89141414E-5	7.65575679E-2
1.03574811E-4	7.67533736E-2
7.39820076E-5	7.69033104E-2
1.57828283E-4	7.70473288E-2
1.43031881E-4	7.71923335E-2
2.02217487E-4	7.73383247E-2
2.12081755E-4	7.74843158E-2
2.86063763E-4	7.76312934E-2
3.60045770E-4	7.77767914E-2
3.74842172E-4	7.79706242E-2
4.09367109E-4	7.81185882E-2
3.89638573E-4	7.82665522E-2
4.14299242E-4	7.84031723E-2
4.83349116E-4	7.85417653E-2
4.83349116E-4	7.86759193E-2
4.88281250E-4	7.88219105E-2
5.08009785E-4	7.89733270E-2
6.46109533E-4	7.91617345E-2
8.08869949E-4	7.93116714E-2
2.50838463E-1	7.95454545E-2
2.72816051E-1	7.97807173E-2
2.74157592E-1	7.99262153E-2
2.75435014E-1	8.00766454E-2
2.76776555E-1	8.02231297E-2
2.78014520E-1	8.03661616E-2
2.79735835E-1	8.05614741E-2
2.81131629E-1	8.07119042E-2
2.82409051E-1	8.08544429E-2
2.83661813E-1	8.10014205E-2
2.84870186E-1	8.11498777E-2
2.86147609E-1	8.12948824E-2
2.87563131E-1	8.14512311E-2
2.88978654E-1	8.15898240E-2
2.90650647E-1	8.17816840E-2
2.91987255E-1	8.19276752E-2
2.93387981E-1	8.20736664E-2
2.94813368E-1	8.22206439E-2
2.96051334E-1	8.23671283E-2
2.97412603E-1	8.25155855E-2
2.98803464E-1	8.26600971E-2
3.00283104E-1	8.28095407E-2
3.02137587E-1	8.30028804E-2
3.03503788E-1	8.31562697E-2
3.04800939E-1	8.33007812E-2
3.06137547E-1	8.34443063E-2
3.07543205E-1	8.35893111E-2
3.08904474E-1	8.37343158E-2
3.10181897E-1	8.38847459E-2
3.11548098E-1	8.40297506E-2
3.13402580E-1	8.42235835E-2
3.14818103E-1	8.43735204E-2
3.16268150E-1	8.45234572E-2
3.17659012E-1	8.46625434E-2
3.18901910E-1	8.48075481E-2
3.20312500E-1	8.49525529E-2
3.21713226E-1	8.50965712E-2
3.23143545E-1	8.52450284E-2
3.24924045E-1	8.54383681E-2
3.26221196E-1	8.55868253E-2
3.27616990E-1	8.57333097E-2
3.29052241E-1	8.58802872E-2
3.30561474E-1	8.60297309E-2
3.31991793E-1	8.61767085E-2
3.33402383E-1	8.63222064E-2
3.34877091E-1	8.64686908E-2
3.36785827E-1	8.66610440E-2
3.38240807E-1	8.68104877E-2
3.39626736E-1	8.69569721E-2
3.40978141E-1	8.71019768E-2
3.42442985E-1	8.72499408E-2
3.43843711E-1	8.73969184E-2
3.45303622E-1	8.75458688E-2
3.46625434E-1	8.76923532E-2
3.48499645E-1	8.78684304E-2
3.49890507E-1	8.80094894E-2
3.51286301E-1	8.81540009E-2
3.52682094E-1	8.83078835E-2
3.54146938E-1	8.84523950E-2
3.55483546E-1	8.85939473E-2
3.57066761E-1	8.87463502E-2
3.58561198E-1	8.88962871E-2
3.60410748E-1	8.90911064E-2
3.61910117E-1	8.92435093E-2
3.63296046E-1	8.93890073E-2
3.64731297E-1	8.95364781E-2
3.66206005E-1	8.96800032E-2
3.67715238E-1	8.98274740E-2
3.69229403E-1	8.99764244E-2
3.70783026E-1	9.01214291E-2
3.72706558E-1	9.03142756E-2
3.74230587E-1	9.04656921E-2
3.75868056E-1	9.06166154E-2
3.77372356E-1	9.07650726E-2
3.78585661E-1	9.08859099E-2
3.80109691E-1	9.10225300E-2
3.81683041E-1	9.11754261E-2
3.83133089E-1	9.13204309E-2
3.85155264E-1	9.15177162E-2
3.86713818E-1	9.16642006E-2
3.88213187E-1	9.18087121E-2
3.89825994E-1	9.19606218E-2
3.91478259E-1	9.21145044E-2
3.92987492E-1	9.22683870E-2
3.94516454E-1	9.24055003E-2
4.37874842E-1	9.25593829E-2
4.41263218E-1	9.27630800E-2
4.43236072E-1	9.29125237E-2
4.45110283E-1	9.30580216E-2
4.46989426E-1	9.32064789E-2
4.48819247E-1	9.33524700E-2
4.50762508E-1	9.34999408E-2
4.52592330E-1	9.36498777E-2
4.54501065E-1	9.37948824E-2
4.56858625E-1	9.39872356E-2
4.58678583E-1	9.41302675E-2
4.60547861E-1	9.42757655E-2
4.64883207E-1	9.44242227E-2
4.67319681E-1	9.45741596E-2
4.69203756E-1	9.47176847E-2
4.71073035E-1	9.48641690E-2
4.72779553E-1	9.50126263E-2
4.75216027E-1	9.52089252E-2
4.77035985E-1	9.53568892E-2
4.78915128E-1	9.55014007E-2
4.80651239E-1	9.56473919E-2
4.93178859E-1	9.57943695E-2
4.95699179E-1	9.59443063E-2
4.97667101E-1	9.60898043E-2
4.99615294E-1	9.62382615E-2
5.02239189E-1	9.64320944E-2
5.03930911E-1	9.65830177E-2
5.05849511E-1	9.67383799E-2
5.07851957E-1	9.68897964E-2
5.09657118E-1	9.70264165E-2
5.11551057E-1	9.71605705E-2
5.13361151E-1	9.73075481E-2
5.15225497E-1	9.74545257E-2
5.17647175E-1	9.76463857E-2
5.20389441E-1	9.77963226E-2
5.22209399E-1	9.79423138E-2
5.24172388E-1	9.80887981E-2
5.26263613E-1	9.82402146E-2
5.28177281E-1	9.83842330E-2
5.29864070E-1	9.85331834E-2
5.31693892E-1	9.86757221E-2
5.33790049E-1	9.88695549E-2
5.35585346E-1	9.90170257E-2
5.37336253E-1	9.91644965E-2
5.39294310E-1	9.93129538E-2
5.40966304E-1	9.94584517E-2
5.42707347E-1	9.96054293E-2
5.44675268E-1	9.97583254E-2
5.46455769E-1	9.99062895E-2
5.48754143E-1	9.99506787E-2
5.50559304E-1	9.99511719E-2
5.52216501E-1	9.99511719E-2
5.52852746E-1	9.99511719E-2
5.52255958E-1	9.99511719E-2
5.50366951E-1	9.99511719E-2
5.48512468E-1	9.99511719E-2
5.46105587E-1	9.99117148E-2
5.44369476E-1	9.97662169E-2
5.42450876E-1	9.96226918E-2
5.40552004E-1	9.94717685E-2
5.38840554E-1	9.93233112E-2
5.37035393E-1	9.91768269E-2
5.35205571E-1	9.90303425E-2
5.33627289E-1	9.88838581E-2
5.31245068E-1	9.86890388E-2
5.29444839E-1	9.85405816E-2
5.27792574E-1	9.83940972E-2
5.25967685E-1	9.82481061E-2
5.24216777E-1	9.81011285E-2
5.22505327E-1	9.79561237E-2
5.20645912E-1	9.78066801E-2
5.18934462E-1	9.76601957E-2
5.16655816E-1	9.74673493E-2
5.14796402E-1	9.73193853E-2
5.13139205E-1	9.71689552E-2
5.11363636E-1	9.70343079E-2
5.09504222E-1	9.68952217E-2
5.07274897E-1	9.67482442E-2
5.05533854E-1	9.66042259E-2
5.03684304E-1	9.64454111E-2
5.01464844E-1	9.62545376E-2
4.99635022E-1	9.61046007E-2
4.97982757E-1	9.59536774E-2
4.96300900E-1	9.58096591E-2
4.94653567E-1	9.56626815E-2
4.92966777E-1	9.55152107E-2
4.91279987E-1	9.53682331E-2
4.89711569E-1	9.52252012E-2
4.87506905E-1	9.50333412E-2
4.85677083E-1	9.48809383E-2
4.84074140E-1	9.47314946E-2
4.82456400E-1	9.45855035E-2
4.80927438E-1	9.44390191E-2
4.79151870E-1	9.42940144E-2
4.77578520E-1	9.41450639E-2
4.76010101E-1	9.40005524E-2
4.73810369E-1	9.38155974E-2
4.72222222E-1	9.36661537E-2
4.70811632E-1	9.35191761E-2
4.69026199E-1	9.33682528E-2
4.67369003E-1	9.32197956E-2
4.65835109E-1	9.30733112E-2
4.64118726E-1	9.29273201E-2
4.62456597E-1	9.27783696E-2
4.60365372E-1	9.25879893E-2
4.58653922E-1	9.24380524E-2
4.57065775E-1	9.22900884E-2
4.55561474E-1	9.21455769E-2
4.54022648E-1	9.20020518E-2
4.52252012E-1	9.18511285E-2
4.50658933E-1	9.17051373E-2
4.49070786E-1	9.15586529E-2
4.46875986E-1	9.13633404E-2
4.45342093E-1	9.12158696E-2
4.43753946E-1	9.10688920E-2
4.42086884E-1	9.09219145E-2
4.40518466E-1	9.07892401E-2
4.38989504E-1	9.06462082E-2
4.37426018E-1	9.05012034E-2
4.35758957E-1	9.03458412E-2
4.33672664E-1	9.01490491E-2
4.32153567E-1	8.99996054E-2
4.30585148E-1	8.98536143E-2
4.28962476E-1	8.97061435E-2
4.27334872E-1	8.95581795E-2
4.25746725E-1	8.94141611E-2
4.24059935E-1	8.92701428E-2
4.22545770E-1	8.91221788E-2
4.20518663E-1	8.89352509E-2
4.18935448E-1	8.87818616E-2
4.17214134E-1	8.86294586E-2
4.15650647E-1	8.84834675E-2
4.14126618E-1	8.83350103E-2
4.12627249E-1	8.81900055E-2
4.11039102E-1	8.80430279E-2
4.09584122E-1	8.78970368E-2
4.07719776E-1	8.77372356E-2
4.06136561E-1	8.75922309E-2
4.04444839E-1	8.74437737E-2
4.02886285E-1	8.72864386E-2
4.01367187E-1	8.71399542E-2
3.99779040E-1	8.69850852E-2
3.98235283E-1	8.68450126E-2
3.96642203E-1	8.66931029E-2
3.94595368E-1	8.65007497E-2
3.93007221E-1	8.63522925E-2
3.91453598E-1	8.61993963E-2
3.89909841E-1	8.60686948E-2
3.88297033E-1	8.59162918E-2
3.86763139E-1	8.57653685E-2
3.85199653E-1	8.56100063E-2
3.83591777E-1	8.54650016E-2
3.81461095E-1	8.52756076E-2
3.79927202E-1	8.51187658E-2
3.78408104E-1	8.49757339E-2
3.76977786E-1	8.48307292E-2
3.75478417E-1	8.46827652E-2
3.74013573E-1	8.45683396E-2
3.72371173E-1	8.44213621E-2
3.70748501E-1	8.42729048E-2
3.68701665E-1	8.40687145E-2
3.67172704E-1	8.39246962E-2
3.65697996E-1	8.37708136E-2
3.64144373E-1	8.36297546E-2
3.62575955E-1	8.34827770E-2
3.60997672E-1	8.33372790E-2
3.59518032E-1	8.31883286E-2
3.57979206E-1	8.30472696E-2
3.56035945E-1	8.28563960E-2
3.54526712E-1	8.27030066E-2
3.53002683E-1	8.25535630E-2
3.51483586E-1	8.23967211E-2
3.49870778E-1	8.22596078E-2
3.48351681E-1	8.21076981E-2
3.46812855E-1	8.19622001E-2
3.45530500E-1	8.18162090E-2
3.43385022E-1	8.16204033E-2
3.41372711E-1	8.14906881E-2
3.39720447E-1	8.13442038E-2
3.37994200E-1	8.11918008E-2
3.36401121E-1	8.10393979E-2
3.34605824E-1	8.08909407E-2
3.33032473E-1	8.07474156E-2
3.31557765E-1	8.06014244E-2
3.28711924E-1	8.04085780E-2
3.27034998E-1	8.02512429E-2
3.25412326E-1	8.01072246E-2
3.24006668E-1	7.99715909E-2
3.22522096E-1	7.98251065E-2
3.20899424E-1	7.96623461E-2
3.19380327E-1	7.95158617E-2
3.17900687E-1	7.93698706E-2
3.15927833E-1	7.91760377E-2
3.14467921E-1	7.90280737E-2
3.12968553E-1	7.88751776E-2
3.11306424E-1	7.87301728E-2
3.09797191E-1	7.85886206E-2
3.08416193E-1	7.84455887E-2
3.06921757E-1	7.83212989E-2
3.05318813E-1	7.81718553E-2
3.03331163E-1	7.79795021E-2
3.01821930E-1	7.78266059E-2
3.00386679E-1	7.76756826E-2
2.98887311E-1	7.75306779E-2
2.97412603E-1	7.73906053E-2
2.95952691E-1	7.72352431E-2
2.94453322E-1	7.70936908E-2
2.93008207E-1	7.69526318E-2
2.91035354E-1	7.67602786E-2
2.89462003E-1	7.66034367E-2
2.87883720E-1	7.64490609E-2
2.86315301E-1	7.63094815E-2
2.84756747E-1	7.61501736E-2
2.83395478E-1	7.60145399E-2
2.81807331E-1	7.58562184E-2
2.80283302E-1	7.57112137E-2
2.75267322E-1	7.55218198E-2
2.73639717E-1	7.53768150E-2
2.72322838E-1	7.52480863E-2
2.70808673E-1	7.51045612E-2
2.69486861E-1	7.49556108E-2
2.68026949E-1	7.48101128E-2
2.66606495E-1	7.46591896E-2
2.65181108E-1	7.45127052E-2
2.63361151E-1	7.43208452E-2
2.61945628E-1	7.41723879E-2
2.60633681E-1	7.40273832E-2
2.59282276E-1	7.38813920E-2
2.57881550E-1	7.37354009E-2
2.56461095E-1	7.35859572E-2
2.55183673E-1	7.34365136E-2
2.53748422E-1	7.32934817E-2
2.52007378E-1	7.30952099E-2
2.50586924E-1	7.29521780E-2
2.49097420E-1	7.28007615E-2
2.47617779E-1	7.26498382E-2
2.46148003E-1	7.25132181E-2
2.37763376E-1	7.23647609E-2
2.35810251E-1	7.22153172E-2
2.34453914E-1	7.20762311E-2
2.32920021E-1	7.18819050E-2
2.31657394E-1	7.17334478E-2
2.30483546E-1	7.15859770E-2
2.29240649E-1	7.14394926E-2
2.28037208E-1	7.12935014E-2
2.26838699E-1	7.11470170E-2
2.25615530E-1	7.10000395E-2
2.24505800E-1	7.08579940E-2
2.22814078E-1	7.06631747E-2
2.21610638E-1	7.05122514E-2
2.20569957E-1	7.03657670E-2
2.19272806E-1	7.02187895E-2
2.18172940E-1	7.00732915E-2
2.16870857E-1	6.99253275E-2
2.15716738E-1	6.97768703E-2
2.14518229E-1	6.96318655E-2
2.12915286E-1	6.94370462E-2
2.11810488E-1	6.92925347E-2
2.10518269E-1	6.91450639E-2
2.09319760E-1	6.89985795E-2
2.08062066E-1	6.88540680E-2
2.06981929E-1	6.87065972E-2
2.05640388E-1	6.85601128E-2
2.04535590E-1	6.84131353E-2
2.02829072E-1	6.82202888E-2
2.01719342E-1	6.80703520E-2
2.00560290E-1	6.79253472E-2
1.99297664E-1	6.77818221E-2
1.98192866E-1	6.76338581E-2
1.96821733E-1	6.74878670E-2
1.95687342E-1	6.73384233E-2
1.94424716E-1	6.71919389E-2
1.92900687E-1	6.69981061E-2
1.91707110E-1	6.68501420E-2
1.90498737E-1	6.67041509E-2
1.89418600E-1	6.65566801E-2
1.87618371E-1	6.64092093E-2
1.86503709E-1	6.62656842E-2
1.85181897E-1	6.61177202E-2
1.84017914E-1	6.59722222E-2
1.82365649E-1	6.57843079E-2
1.81157276E-1	6.56343711E-2
1.79958767E-1	6.54888731E-2
1.78755327E-1	6.53384430E-2
1.77601207E-1	6.51939315E-2
1.76358310E-1	6.50469539E-2
1.75292969E-1	6.49014560E-2
1.74124053E-1	6.47603969E-2
1.72481652E-1	6.45660709E-2
1.71347262E-1	6.44190933E-2
1.70050110E-1	6.42647175E-2
1.68940380E-1	6.41182331E-2
1.67741872E-1	6.39717487E-2
1.66597617E-1	6.38252644E-2
1.65463226E-1	6.36797664E-2
1.64195668E-1	6.35318024E-2
1.62671638E-1	6.33389560E-2
1.61611229E-1	6.31969105E-2
1.60471907E-1	6.30445076E-2
1.59248737E-1	6.28970368E-2
1.58267243E-1	6.27505524E-2
1.57172309E-1	6.26228101E-2
1.56047783E-1	6.24847104E-2
1.54928188E-1	6.23357599E-2
1.53428819E-1	6.21409407E-2
1.52368411E-1	6.19895241E-2
1.51263613E-1	6.18420533E-2
1.50148950E-1	6.17098722E-2
1.49009628E-1	6.15678267E-2
1.47978812E-1	6.14045731E-2
1.46800032E-1	6.12546362E-2
1.45680437E-1	6.11056858E-2
1.44240254E-1	6.09133325E-2
1.43110795E-1	6.07629025E-2
1.42055319E-1	6.06188842E-2
1.40915996E-1	6.04684541E-2
1.39821062E-1	6.03249290E-2
1.38770518E-1	6.01878157E-2
1.37705177E-1	6.00413313E-2
1.36565854E-1	5.98810369E-2
1.35031960E-1	5.96857244E-2
1.33858112E-1	5.95653804E-2
1.32851957E-1	5.94198824E-2
1.31781684E-1	5.92714252E-2
1.30696615E-1	5.91264205E-2
1.29552360E-1	5.89804293E-2
1.28511679E-1	5.88364110E-2
1.27466067E-1	5.86904198E-2
1.26311948E-1	5.84990530E-2
1.25064118E-1	5.83422112E-2
1.24028370E-1	5.81991793E-2
1.22893979E-1	5.80452967E-2
1.21749724E-1	5.79012784E-2
1.20669586E-1	5.77552872E-2
1.19623974E-1	5.76028843E-2
1.18588226E-1	5.74603456E-2
1.17182568E-1	5.72689789E-2
1.16146820E-1	5.71185488E-2
1.15032158E-1	5.69794626E-2
1.13853378E-1	5.68250868E-2
1.12817629E-1	5.66776160E-2
1.11821338E-1	5.65316248E-2
1.10608033E-1	5.63930319E-2
1.09527896E-1	5.62435882E-2
1.08058120E-1	5.60561671E-2
1.06977983E-1	5.59047506E-2
1.05952099E-1	5.57602391E-2
1.04886758E-1	5.56157276E-2
1.03811553E-1	5.54722025E-2
1.02583452E-1	5.53188131E-2
1.01518111E-1	5.51698627E-2
1.00378788E-1	5.50253512E-2
9.89287405E-2	5.48265862E-2
9.77499605E-2	5.46756629E-2
9.66994160E-2	5.45311514E-2
9.57277857E-2	5.43826941E-2
9.46723090E-2	5.42421283E-2
9.35033933E-2	5.41000829E-2
9.23196812E-2	5.39521188E-2
9.12099511E-2	5.37997159E-2
8.96464646E-2	5.35994713E-2
8.84232955E-2	5.34515073E-2
8.72987689E-2	5.33247514E-2
8.60262784E-2	5.31777738E-2
8.49017519E-2	5.30332623E-2
8.35503472E-2	5.28823390E-2
8.24406171E-2	5.27388139E-2
8.11336016E-2	5.25938092E-2
7.95109296E-2	5.24024424E-2
7.80066288E-2	5.22500395E-2
7.64776673E-2	5.21015822E-2
7.51509233E-2	5.19575639E-2
7.37058081E-2	5.18100931E-2
7.23149463E-2	5.16576902E-2
7.07909170E-2	5.15146583E-2
6.93211411E-2	5.13652146E-2
6.73828125E-2	5.11743411E-2
6.58982402E-2	5.10303228E-2
6.42706360E-2	5.08813723E-2
6.25789141E-2	5.07299558E-2
6.10104956E-2	5.05844579E-2
5.91609454E-2	5.04374803E-2
5.76517124E-2	5.02905027E-2
5.59550584E-2	5.01509233E-2
5.36714804E-2	4.99595565E-2
5.17775410E-2	4.98096196E-2
4.97948232E-2	4.96641217E-2
4.79650016E-2	4.95201034E-2
4.60217408E-2	4.93741122E-2
4.39699732E-2	4.92251618E-2
4.13362137E-2	4.90781842E-2
3.75927241E-2	4.89312066E-2
3.22758838E-2	4.87358941E-2
3.94570707E-5	4.85795455E-2
-4.43892045E-5	4.84227036E-2
-1.08506944E-4	4.82811514E-2
-6.90498737E-5	4.81376263E-2
-4.43892045E-5	4.79965672E-2
-4.93213384E-5	4.78500829E-2
-4.43892045E-5	4.76947206E-2
-4.93213384E-5	4.75018742E-2
-5.91856061E-5	4.73519373E-2
-3.45249369E-5	4.72039733E-2
-5.91856061E-5	4.70742582E-2
-3.94570707E-5	4.69297467E-2
-8.38462753E-5	4.67817827E-2
-9.86426768E-5	4.66348051E-2
-1.97285354E-5	4.64902936E-2
-3.94570707E-5	4.62999132E-2
-2.46606692E-5	4.61480035E-2
-3.45249369E-5	4.60015191E-2
-3.45249369E-5	4.58540483E-2
-5.91856061E-5	4.57090436E-2
-3.94570707E-5	4.55625592E-2
-6.90498737E-5	4.54150884E-2
-9.86426768E-5	4.52690972E-2
-6.90498737E-5	4.50752644E-2
-5.91856061E-5	4.49277936E-2
-4.93213384E-5	4.47832820E-2
-6.41177399E-5	4.46333452E-2
-3.45249369E-5	4.44868608E-2
-6.41177399E-5	4.43393900E-2
-3.45249369E-5	4.41948785E-2
-3.45249369E-5	4.40469145E-2
-2.46606692E-5	4.38609730E-2
-8.87784091E-5	4.37080769E-2
-1.38099747E-4	4.35650450E-2
-3.45249369E-5	4.34244792E-2
-6.41177399E-5	4.32819405E-2
-1.97285354E-5	4.31241122E-2
-2.46606692E-5	4.29786143E-2
-5.91856061E-5	4.28321299E-2
-4.43892045E-5	4.26358310E-2
-6.41177399E-5	4.24937855E-2
-9.37105429E-5	4.23418758E-2
-4.43892045E-5	4.21953914E-2
-8.38462753E-5	4.20508799E-2
-4.43892045E-5	4.19058752E-2
-3.45249369E-5	4.17579111E-2
-3.94570707E-5	4.16114268E-2
-4.43892045E-5	4.14166075E-2
-3.45249369E-5	4.12686435E-2
-2.95928030E-5	4.11231455E-2
-4.43892045E-5	4.09761679E-2
-2.95928030E-5	4.08573035E-2
-1.47964015E-5	4.07088463E-2
-1.23303346E-4	4.05653212E-2
-6.41177399E-5	4.04213029E-2
-2.95928030E-5	4.02304293E-2
-5.42534722E-5	4.00755603E-2
-1.97285354E-5	3.99290759E-2
-4.43892045E-5	3.97860440E-2
-3.45249369E-5	3.96356140E-2
-4.43892045E-5	3.94901160E-2
-5.42534722E-5	3.93411656E-2
-9.37105429E-5	3.91966540E-2
-3.94570707E-5	3.90033144E-2
-4.43892045E-5	3.88583097E-2
-6.41177399E-5	3.87108389E-2
-3.45249369E-5	3.85584359E-2
-4.93213384E-5	3.84149108E-2
-4.93213384E-5	3.82600418E-2
-7.89141414E-5	3.81170099E-2
-1.08506944E-4	3.79710188E-2
-1.47964015E-5	3.77845841E-2
-3.45249369E-5	3.76509233E-2
-4.43892045E-5	3.75064118E-2
-4.93213384E-5	3.73604206E-2
-6.41177399E-5	3.72154159E-2
-5.91856061E-5	3.70674519E-2
-3.94570707E-5	3.69199811E-2
-3.45249369E-5	3.67725103E-2
-5.42534722E-5	3.65806503E-2
-6.41177399E-5	3.64321930E-2
-4.93213384E-5	3.62862019E-2
-5.42534722E-5	3.61382378E-2
-4.43892045E-5	3.59912603E-2
-4.43892045E-5	3.58497080E-2
-4.93213384E-5	3.57012508E-2
-5.42534722E-5	3.55527936E-2
-9.37105429E-5	3.53579743E-2
-5.91856061E-5	3.52109967E-2
-6.41177399E-5	3.50650055E-2
-3.94570707E-5	3.49160551E-2
-4.93213384E-5	3.47700639E-2
-6.90498737E-5	3.46250592E-2
-4.43892045E-5	3.44997830E-2
-9.86426768E-5	3.43572443E-2
-6.90498737E-5	3.41643979E-2
-3.45249369E-5	3.40115017E-2
-3.45249369E-5	3.38600852E-2
-3.45249369E-5	3.37140941E-2
-2.46606692E-5	3.35720486E-2
-4.43892045E-5	3.34211253E-2
-6.41177399E-5	3.32711884E-2
-1.13439078E-4	3.31281566E-2
-3.94570707E-5	3.29338305E-2
-2.46606692E-5	3.27942511E-2
-4.43892045E-5	3.26457939E-2
-4.43892045E-5	3.24894452E-2
-3.94570707E-5	3.23488794E-2
-4.43892045E-5	3.21930240E-2
-6.41177399E-5	3.20539378E-2
-8.38462753E-5	3.19054806E-2
-4.43892045E-5	3.17126342E-2
-4.43892045E-5	3.15592448E-2
-3.94570707E-5	3.14384075E-2
-7.89141414E-5	3.12968553E-2
-3.45249369E-5	3.11523437E-2
-4.43892045E-5	3.09930358E-2
-2.95928030E-5	3.08475379E-2
-4.93213384E-5	3.06966146E-2
-6.41177399E-5	3.05087003E-2
-5.42534722E-5	3.03656684E-2
-4.43892045E-5	3.02073469E-2
-4.43892045E-5	3.00682607E-2
-2.46606692E-5	2.99242424E-2
-3.45249369E-5	2.97826902E-2
-4.43892045E-5	2.96362058E-2
-4.43892045E-5	2.94823232E-2
-4.43892045E-5	2.92830650E-2
-9.37105429E-5	2.91321417E-2
-1.08506944E-4	2.89881234E-2
-2.46606692E-5	2.88421323E-2
-5.42534722E-5	2.86971275E-2
-3.45249369E-5	2.85516296E-2
-5.91856061E-5	2.84090909E-2
-6.41177399E-5	2.82788826E-2
-4.43892045E-5	2.80850497E-2
-4.93213384E-5	2.79331400E-2
-5.91856061E-5	2.77881353E-2
-9.86426768E-5	2.76426373E-2
-7.89141414E-5	2.74936869E-2
-4.43892045E-5	2.73476957E-2
-3.45249369E-5	2.71987453E-2
-5.91856061E-5	2.70547270E-2
-3.94570707E-5	2.68618805E-2
-6.90498737E-5	2.67139165E-2
-5.42534722E-5	2.65679253E-2
-7.89141414E-5	2.64199613E-2
-8.87784091E-5	2.62724905E-2
-3.94570707E-5	2.61264994E-2
-4.43892045E-5	2.59800150E-2
-3.45249369E-5	2.58345170E-2
-4.93213384E-5	2.56401910E-2
-5.42534722E-5	2.54941998E-2
-3.45249369E-5	2.53457426E-2
-7.89141414E-5	2.52327967E-2
-6.90498737E-5	2.50912445E-2
-6.41177399E-5	2.49373619E-2
-4.43892045E-5	2.47805200E-2
-5.42534722E-5	2.46355153E-2
-4.43892045E-5	2.44426689E-2
-5.42534722E-5	2.42942116E-2
-3.94570707E-5	2.41432884E-2
-4.93213384E-5	2.40012429E-2
-9.37105429E-5	2.38557449E-2
-8.38462753E-5	2.37156723E-2
-3.94570707E-5	2.35682015E-2
-4.43892045E-5	2.34148122E-2
-4.43892045E-5	2.32155540E-2
-6.90498737E-5	2.30710425E-2
-6.90498737E-5	2.29201192E-2
-3.94570707E-5	2.27761009E-2
-4.93213384E-5	2.26320825E-2
-7.89141414E-5	2.24791864E-2
-8.38462753E-5	2.23435527E-2
-2.95928030E-5	2.22093987E-2
-1.97285354E-5	2.20274029E-2
-5.91856061E-5	2.18759864E-2
-3.94570707E-5	2.17290088E-2
-7.39820076E-5	2.15835109E-2
-7.39820076E-5	2.14375197E-2
-5.91856061E-5	2.12915286E-2
-8.38462753E-5	2.11425781E-2
-2.95928030E-5	2.09951073E-2
-3.45249369E-5	2.08042337E-2
-2.95928030E-5	2.06602154E-2
-5.42534722E-5	2.05112650E-2
-3.94570707E-5	2.03637942E-2
-6.41177399E-5	2.02138573E-2
-6.90498737E-5	2.00673729E-2
-5.42534722E-5	1.99194089E-2
-5.91856061E-5	1.97729246E-2
-8.87784091E-5	1.95845170E-2
-5.42534722E-5	1.94301413E-2
-2.95928030E-5	1.92876026E-2
-2.95928030E-5	1.91460503E-2
-7.39820076E-5	1.89990728E-2
-2.95928030E-5	1.88530816E-2
-2.95928030E-5	1.87070904E-2
-5.42534722E-5	1.85591264E-2
-2.95928030E-5	1.83657868E-2
-7.39820076E-5	1.82183160E-2
-9.37105429E-5	1.80708452E-2
-4.43892045E-5	1.79268269E-2
-3.94570707E-5	1.77783696E-2
-2.46606692E-5	1.76348445E-2
-7.39820076E-5	1.74873737E-2
-6.41177399E-5	1.73379301E-2
-6.41177399E-5	1.71440972E-2
-7.39820076E-5	1.69961332E-2
-5.42534722E-5	1.68496488E-2
-7.39820076E-5	1.67036577E-2
-9.86426768E-5	1.65547072E-2
-2.95928030E-5	1.64106889E-2
-4.43892045E-5	1.62642045E-2
-2.95928030E-5	1.61201862E-2
-6.41177399E-5	1.59258602E-2
-4.43892045E-5	1.57887468E-2
-4.93213384E-5	1.56437421E-2
-3.94570707E-5	1.54952849E-2
-1.08506944E-4	1.53492937E-2
-3.45249369E-5	1.52033026E-2
-4.93213384E-5	1.50518860E-2
-5.42534722E-5	1.49167456E-2
-5.42534722E-5	1.47174874E-2
-4.43892045E-5	1.45793876E-2
-4.93213384E-5	1.44373422E-2
-3.45249369E-5	1.42755682E-2
-8.38462753E-5	1.41261245E-2
-5.91856061E-5	1.39771741E-2
-3.94570707E-5	1.38346354E-2
-2.46606692E-5	1.36871646E-2
-3.94570707E-5	1.34938250E-2
-3.45249369E-5	1.33493134E-2
-4.43892045E-5	1.32107205E-2
-5.42534722E-5	1.30721275E-2
-1.08506944E-4	1.29197246E-2
-9.86426768E-6	1.27599235E-2
-5.42534722E-5	1.26484572E-2
-4.43892045E-5	1.25004932E-2
-3.94570707E-5	1.23066604E-2
-4.43892045E-5	1.21596828E-2
-5.42534722E-5	1.20127052E-2
-5.42534722E-5	1.18667140E-2
-1.33167614E-4	1.17226957E-2
-2.95928030E-5	1.15771978E-2
-2.95928030E-5	1.14287405E-2
-3.94570707E-5	1.12802833E-2
-7.39820076E-5	1.10839844E-2
-2.95928030E-5	1.09389796E-2
-6.41177399E-5	1.07924953E-2
-4.93213384E-5	1.06455177E-2
-1.03574811E-4	1.04985401E-2
-4.43892045E-5	1.03530421E-2
-4.93213384E-5	1.02085306E-2
-5.42534722E-5	1.00620462E-2
-1.97285354E-5	9.86673374E-3
-3.45249369E-5	9.71630366E-3
-5.42534722E-5	9.57771070E-3
-9.86426768E-5	9.43221275E-3
-5.91856061E-5	9.28622159E-3
-4.43892045E-5	9.13973722E-3
-4.43892045E-5	8.99275963E-3
-7.39820076E-5	8.84578204E-3
-6.90498737E-5	8.65441525E-3
-3.94570707E-5	8.50546480E-3
-5.42534722E-5	8.36193971E-3
-7.39820076E-5	8.21052320E-3
-1.28235480E-4	8.06601168E-3
-6.41177399E-5	7.91656802E-3
-7.89141414E-5	7.77205650E-3
-6.41177399E-5	7.62606534E-3
-3.94570707E-5	7.43173927E-3
-2.95928030E-5	7.28426847E-3
-5.91856061E-5	7.14222301E-3
-1.13439078E-4	6.99771149E-3
-5.91856061E-5	6.85221354E-3
-4.43892045E-5	6.69833097E-3
-4.93213384E-5	6.54938052E-3
-4.43892045E-5	6.41571970E-3
-5.91856061E-5	6.22040720E-3
-5.91856061E-5	6.07145676E-3
-4.43892045E-5	5.94420770E-3
-9.37105429E-5	5.78144729E-3
-4.43892045E-5	5.64236111E-3
-4.93213384E-5	5.50080887E-3
-4.93213384E-5	5.34446023E-3
-3.94570707E-5	5.19107086E-3
-6.41177399E-5	4.99921086E-3
-3.45249369E-5	4.85371291E-3
-7.89141414E-5	4.70426926E-3
-2.46606692E-5	4.55827809E-3
-3.94570707E-5	4.41475300E-3
-6.90498737E-5	4.26136364E-3
-4.93213384E-5	4.12474353E-3
-4.43892045E-5	3.98171165E-3
-4.43892045E-5	3.78787879E-3
-1.03574811E-4	3.63103693E-3
-6.41177399E-5	3.48603220E-3
-4.93213384E-5	3.36272885E-3
-3.45249369E-5	3.22068340E-3
-3.94570707E-5	3.07370581E-3
-2.95928030E-5	2.92475537E-3
-6.41177399E-5	2.78221670E-3
-5.91856061E-5	2.59134312E-3
-8.87784091E-5	2.44535196E-3
-4.93213384E-5	2.29393545E-3
-5.91856061E-5	2.14794429E-3
-5.42534722E-5	1.99948706E-3
-2.46606692E-5	1.84856376E-3
-5.91856061E-5	1.70405224E-3
-4.93213384E-5	1.55608823E-3
-7.39820076E-5	1.36472143E-3
-5.91856061E-5	1.21725063E-3
-7.39820076E-5	1.07273911E-3
-4.93213384E-5	9.26747948E-4
-2.46606692E-5	7.84209280E-4
-6.41177399E-5	6.21942077E-4
-5.42534722E-5	4.78910196E-4
-4.43892045E-5	2.85570549E-4
-1.03574811E-4	1.42538668E-4
-5.42534722E-5	-5.91856061E-6
-8.87784091E-5	-1.52896149E-4
-5.91856061E-5	-2.95928030E-4
-8.38462753E-5	-4.42905619E-4
-8.38462753E-5	-5.84951073E-4
-9.86426768E-5	-7.28969381E-4
-1.47964015E-4	-9.27241162E-4
-4.43892045E-5	-1.07619160E-3
-6.90498737E-5	-1.22662169E-3
-4.93213384E-5	-1.37310606E-3
-5.42534722E-5	-1.52008365E-3
-7.89141414E-5	-1.66804766E-3
-5.42534722E-5	-1.81255919E-3
-8.38462753E-5	-1.95559107E-3
-9.86426768E-5	-2.14498501E-3
-5.42534722E-5	-2.29097617E-3
-4.43892045E-5	-2.44880445E-3
-5.91856061E-5	-2.59380919E-3
-1.97285354E-5	-2.73832071E-3
-4.43892045E-5	-2.87790009E-3
-7.39820076E-5	-3.02142519E-3
-8.38462753E-5	-3.16889599E-3
-4.43892045E-5	-3.36075600E-3
-5.42534722E-5	-3.50674716E-3
-5.42534722E-5	-3.65125868E-3
-6.41177399E-5	-3.80020912E-3
-8.38462753E-5	-3.95063920E-3
-5.42534722E-5	-4.09564394E-3
-7.39820076E-5	-4.24262153E-3
-7.89141414E-5	-4.39009233E-3
-4.43892045E-5	-4.58293876E-3
-7.39820076E-5	-4.73139599E-3
-2.95928030E-5	-4.87738715E-3
-6.41177399E-5	-5.02239189E-3
-5.42534722E-5	-5.16591698E-3
-6.90498737E-5	-5.31240136E-3
-1.08506944E-4	-5.46332465E-3
-4.93213384E-5	-5.60931581E-3
-8.38462753E-5	-5.80166903E-3
-4.43892045E-5	-5.94963305E-3
-5.42534722E-5	-6.09167850E-3
-7.39820076E-5	-6.24161537E-3
-4.43892045E-5	-6.38612689E-3
-1.13439078E-4	-6.52866556E-3
-6.41177399E-5	-6.67367030E-3
-6.41177399E-5	-6.81818182E-3
-5.91856061E-5	-7.02089252E-3
-7.89141414E-5	-7.16737689E-3
-4.93213384E-5	-7.31386127E-3
-7.39820076E-5	-7.45935922E-3
-1.03574811E-4	-7.60929609E-3
-5.42534722E-5	-7.73407907E-3
-1.97285354E-5	-7.89240057E-3
-5.91856061E-5	-8.03000710E-3
-5.91856061E-5	-8.21989426E-3
-5.42534722E-5	-8.36391256E-3
-8.87784091E-5	-8.52371370E-3
-4.43892045E-5	-8.67019807E-3
-3.94570707E-5	-8.82161458E-3
-4.93213384E-5	-8.97056503E-3
-5.42534722E-5	-9.11902225E-3
-7.39820076E-5	-9.23394097E-3
-7.39820076E-5	-9.43270597E-3
-6.41177399E-5	-9.57721749E-3
-8.87784091E-5	-9.72222222E-3
-5.91856061E-5	-9.87067945E-3
-5.91856061E-5	-1.00250552E-2
-8.38462753E-5	-1.01710464E-2
-9.37105429E-5	-1.03199968E-2
-7.39820076E-5	-1.04650016E-2
-5.91856061E-5	-1.06553819E-2
-3.45249369E-5	-1.07998935E-2
-3.45249369E-5	-1.09527896E-2
-6.41177399E-5	-1.10923690E-2
-5.42534722E-5	-1.12309620E-2
-4.93213384E-5	-1.13813920E-2
-5.91856061E-5	-1.15367543E-2
-5.42534722E-5	-1.16783065E-2
-4.43892045E-5	-1.18716461E-2
-1.03574811E-4	-1.20196102E-2
-6.41177399E-5	-1.21660945E-2
-3.45249369E-5	-1.22992622E-2
-4.93213384E-5	-1.24437737E-2
-7.89141414E-5	-1.25912445E-2
-6.41177399E-5	-1.27352628E-2
-1.03574811E-4	-1.28832268E-2
-5.91856061E-5	-1.30760732E-2
-4.93213384E-5	-1.32274897E-2
-5.42534722E-5	-1.33729877E-2
-7.39820076E-5	-1.35209517E-2
-5.91856061E-5	-1.36654632E-2
-4.43892045E-5	-1.38119476E-2
-5.91856061E-5	-1.39594184E-2
-9.37105429E-5	-1.41054096E-2
-5.42534722E-5	-1.42933239E-2
-5.91856061E-5	-1.44467132E-2
-5.91856061E-5	-1.45946772E-2
-2.46606692E-5	-1.47386955E-2
-4.43892045E-5	-1.48846867E-2
-6.41177399E-5	-1.50331439E-2
-1.08506944E-4	-1.51791351E-2
-4.93213384E-5	-1.53266059E-2
-4.93213384E-5	-1.55016967E-2
-6.41177399E-5	-1.56407828E-2
-4.93213384E-5	-1.57892401E-2
-5.42534722E-5	-1.59386837E-2
-3.94570707E-5	-1.60876342E-2
-1.52896149E-4	-1.62385574E-2
-5.91856061E-5	-1.63845486E-2
-7.89141414E-5	-1.65344855E-2
-5.91856061E-5	-1.67238794E-2
-2.95928030E-5	-1.68748027E-2
-3.45249369E-5	-1.70203007E-2
-8.87784091E-5	-1.71574140E-2
-7.39820076E-5	-1.73043916E-2
-5.42534722E-5	-1.74439710E-2
-5.91856061E-5	-1.76116635E-2
-5.91856061E-5	-1.77448311E-2
-6.41177399E-5	-1.79406368E-2
-5.42534722E-5	-1.80910669E-2
-2.95928030E-5	-1.82380445E-2
-1.33167614E-4	-1.83791035E-2
-4.93213384E-5	-1.85162169E-2
-6.41177399E-5	-1.86582623E-2
-4.43892045E-5	-1.88022806E-2
-8.38462753E-5	-1.89522175E-2
-5.91856061E-5	-1.91514757E-2
-2.46606692E-5	-1.92989465E-2
-9.86426768E-5	-1.94498698E-2
-5.42534722E-5	-1.95958610E-2
-6.41177399E-5	-1.97383996E-2
-5.91856061E-5	-1.98853772E-2
-5.42534722E-5	-2.00338344E-2
-7.89141414E-5	-2.01704545E-2
-4.93213384E-5	-2.03593553E-2
-7.39820076E-5	-2.05083057E-2
-5.42534722E-5	-2.06705729E-2
-7.89141414E-5	-2.08121252E-2
-3.94570707E-5	-2.09571299E-2
-3.45249369E-5	-2.10976957E-2
-6.90498737E-5	-2.12491122E-2
-8.87784091E-5	-2.13995423E-2
-6.41177399E-5	-2.15953480E-2
-4.93213384E-5	-2.17230903E-2
-4.43892045E-5	-2.18690814E-2
-6.90498737E-5	-2.20135930E-2
-5.91856061E-5	-2.21645163E-2
-9.37105429E-5	-2.23105074E-2
-4.43892045E-5	-2.24564986E-2
-5.91856061E-5	-2.26039694E-2
-5.91856061E-5	-2.27968158E-2
-6.41177399E-5	-2.29447798E-2
-5.42534722E-5	-2.30912642E-2
-4.43892045E-5	-2.32367622E-2
-9.86426768E-5	-2.33822601E-2
-5.91856061E-5	-2.35292377E-2
-5.42534722E-5	-2.36791746E-2
-1.97285354E-5	-2.38236861E-2
-2.95928030E-5	-2.40189986E-2
-5.91856061E-5	-2.41640033E-2
-6.90498737E-5	-2.43114741E-2
-3.45249369E-5	-2.44579585E-2
-4.93213384E-5	-2.46059225E-2
-5.91856061E-5	-2.47499408E-2
-4.43892045E-5	-2.48643663E-2
-7.39820076E-5	-2.50197285E-2
-9.37105429E-5	-2.52165207E-2
-6.90498737E-5	-2.53704033E-2
-5.91856061E-5	-2.55163944E-2
-4.43892045E-5	-2.56564670E-2
-5.91856061E-5	-2.58014717E-2
-6.41177399E-5	-2.59548611E-2
-9.37105429E-5	-2.61028251E-2
-9.37105429E-5	-2.62384588E-2
-4.93213384E-5	-2.64293324E-2
-7.89141414E-5	-2.65782828E-2
-8.87784091E-5	-2.67316722E-2
-3.94570707E-5	-2.68796362E-2
-5.42534722E-5	-2.70305595E-2
-7.89141414E-5	-2.71696457E-2
-1.08506944E-4	-2.73215554E-2
-5.91856061E-5	-2.74714923E-2
-3.94570707E-5	-2.76554609E-2
-5.42534722E-5	-2.78019452E-2
-5.91856061E-5	-2.79262350E-2
-3.94570707E-5	-2.80751854E-2
-5.42534722E-5	-2.82241359E-2
-9.37105429E-5	-2.83711135E-2
-5.91856061E-5	-2.85116793E-2
-3.94570707E-5	-2.86616162E-2
-5.42534722E-5	-2.88534762E-2
-6.41177399E-5	-2.90043995E-2
-6.90498737E-5	-2.91513771E-2
-1.38099747E-4	-2.92939157E-2
-7.39820076E-5	-2.94389205E-2
-7.39820076E-5	-2.95878709E-2
-9.86426768E-5	-2.97412603E-2
-4.93213384E-5	-2.98823193E-2
-7.39820076E-5	-3.00756589E-2
-8.87784091E-5	-3.02226365E-2
-7.89141414E-5	-3.03706005E-2
-4.43892045E-5	-3.05230035E-2
-2.95928030E-5	-3.06630761E-2
-5.42534722E-5	-3.08080808E-2
-8.38462753E-5	-3.09540720E-2
-7.39820076E-5	-3.10980903E-2
-9.37105429E-5	-3.12943892E-2
-9.37105429E-5	-3.14408736E-2
-3.94570707E-5	-3.15878512E-2
-5.42534722E-5	-3.17338423E-2
-6.90498737E-5	-3.18788471E-2
-2.46606692E-5	-3.20258247E-2
-5.42534722E-5	-3.21732955E-2
-1.13439078E-4	-3.23183002E-2
-6.41177399E-5	-3.25116398E-2
-4.43892045E-5	-3.26600971E-2
-6.41177399E-5	-3.28090475E-2
-6.41177399E-5	-3.29535590E-2
-6.90498737E-5	-3.30990570E-2
-8.87784091E-5	-3.32475142E-2
-1.33167614E-4	-3.33944918E-2
-5.42534722E-5	-3.35409762E-2
-5.42534722E-5	-3.37338226E-2
-6.41177399E-5	-3.38812934E-2
-7.89141414E-5	-3.40223524E-2
-2.46606692E-5	-3.41569997E-2
-4.43892045E-5	-3.43113755E-2
-9.86426768E-5	-3.44573666E-2
-5.42534722E-5	-3.46033578E-2
-7.39820076E-5	-3.47483625E-2
-6.41177399E-5	-3.49421954E-2
-5.91856061E-5	-3.50945983E-2
-5.42534722E-5	-3.52371370E-2
-4.93213384E-5	-3.53786892E-2
-4.93213384E-5	-3.55182686E-2
-9.37105429E-5	-3.56677123E-2
-7.39820076E-5	-3.58284998E-2
-3.94570707E-5	-3.59710385E-2
-3.94570707E-5	-3.61628985E-2
-5.42534722E-5	-3.63128354E-2
-8.87784091E-5	-3.64593198E-2
-6.90498737E-5	-3.66067906E-2
-8.87784091E-5	-3.67488360E-2
-4.93213384E-5	-3.68903883E-2
-4.93213384E-5	-3.70309541E-2
-5.42534722E-5	-3.71858231E-2
-5.91856061E-5	-3.73520360E-2
-5.42534722E-5	-3.74985204E-2
-4.93213384E-5	-3.76474708E-2
-8.87784091E-5	-3.77934620E-2
-1.08506944E-4	-3.79384667E-2
-3.45249369E-5	-3.80869239E-2
-6.90498737E-5	-3.82329151E-2
-4.93213384E-5	-3.83774266E-2
-4.43892045E-5	-3.85692866E-2
-7.89141414E-5	-3.87157710E-2
-5.42534722E-5	-3.88706400E-2
-8.38462753E-5	-3.90131787E-2
-2.46606692E-5	-3.91616359E-2
-6.90498737E-5	-3.93061474E-2
-4.43892045E-5	-3.94536182E-2
-5.91856061E-5	-3.96025687E-2
-7.39820076E-5	-3.97944287E-2
-8.87784091E-5	-3.99394334E-2
-1.33167614E-4	-4.00864110E-2
-4.93213384E-5	-4.02314157E-2
-5.42534722E-5	-4.03774069E-2
-3.45249369E-5	-4.05199455E-2
-3.94570707E-5	-4.06639639E-2
-6.41177399E-5	-4.08139007E-2
-5.91856061E-5	-4.10062539E-2
-1.18371212E-4	-4.11507655E-2
-8.38462753E-5	-4.13007023E-2
-4.93213384E-5	-4.14363360E-2
-6.41177399E-5	-4.15907118E-2
-4.93213384E-5	-4.17327573E-2
-4.93213384E-5	-4.18876263E-2
-4.43892045E-5	-4.20326310E-2
-7.39820076E-5	-4.22239978E-2
-5.91856061E-5	-4.23764007E-2
-5.42534722E-5	-4.25233783E-2
-6.90498737E-5	-4.26688763E-2
-5.42534722E-5	-4.28143742E-2
-4.43892045E-5	-4.29569129E-2
-9.86426768E-5	-4.30974787E-2
-6.41177399E-5	-4.32498816E-2
-5.42534722E-5	-4.34461806E-2
-5.91856061E-5	-4.35842803E-2
-3.94570707E-5	-4.37312579E-2
-6.90498737E-5	-4.38772491E-2
-3.94570707E-5	-4.40291588E-2
-8.87784091E-5	-4.41726839E-2
-5.91856061E-5	-4.43250868E-2
-4.93213384E-5	-4.44597341E-2
-5.42534722E-5	-4.46456755E-2
-7.89141414E-5	-4.47980784E-2
-8.87784091E-5	-4.49455492E-2
-6.41177399E-5	-4.50989386E-2
-1.08506944E-4	-4.52464094E-2
-8.38462753E-5	-4.53914141E-2
-4.93213384E-5	-4.55443103E-2
-5.91856061E-5	-4.56863557E-2
-8.87784091E-5	-4.58846275E-2
-5.42534722E-5	-4.60237137E-2
-4.43892045E-5	-4.61642795E-2
-4.43892045E-5	-4.63142164E-2
-5.91856061E-5	-4.64680990E-2
-1.08506944E-4	-4.66101444E-2
-3.45249369E-5	-4.67304885E-2
-6.90498737E-5	-4.68754932E-2
-4.43892045E-5	-4.70717921E-2
-7.89141414E-5	-4.72232086E-2
-5.42534722E-5	-4.73647609E-2
-5.42534722E-5	-4.75117385E-2
-4.43892045E-5	-4.76532907E-2
-1.03574811E-4	-4.78066801E-2
-4.93213384E-5	-4.79506984E-2
-4.93213384E-5	-4.80976760E-2
-1.97285354E-5	-4.82944681E-2
-5.91856061E-5	-4.84414457E-2
-5.42534722E-5	-4.85938486E-2
-7.89141414E-5	-4.87349077E-2
-9.37105429E-5	-4.88799124E-2
-4.43892045E-5	-4.90288628E-2
-6.41177399E-5	-4.91704151E-2
-7.89141414E-5	-4.93164063E-2
-3.94570707E-5	-4.95136916E-2
-4.43892045E-5	-4.96646149E-2
-7.89141414E-5	-4.97972893E-2
-7.39820076E-5	-4.99442669E-2
-9.37105429E-5	-5.00917377E-2
-3.45249369E-5	-5.02401949E-2
-5.91856061E-5	-5.03856929E-2
-6.41177399E-5	-5.05306976E-2
-1.18371212E-4	-5.07186119E-2
-5.91856061E-5	-5.08690420E-2
-6.41177399E-5	-5.10184856E-2
-5.42534722E-5	-5.11649700E-2
-7.39820076E-5	-5.13134272E-2
-4.43892045E-5	-5.14589252E-2
-1.13439078E-4	-5.16049164E-2
-7.39820076E-5	-5.17504143E-2
-5.91856061E-5	-5.19452336E-2
-7.39820076E-5	-5.20902383E-2
-8.87784091E-5	-5.22362295E-2
-6.90498737E-5	-5.23837003E-2
-6.90498737E-5	-5.25341304E-2
-1.18371212E-4	-5.26786419E-2
-3.94570707E-5	-5.28256195E-2
-4.93213384E-5	-5.29587871E-2
-6.90498737E-5	-5.31432489E-2
-5.91856061E-5	-5.32995975E-2
-1.23303346E-4	-5.34416430E-2
-6.41177399E-5	-5.35743174E-2
-5.91856061E-5	-5.37222814E-2
-5.91856061E-5	-5.38717251E-2
-8.38462753E-5	-5.40280737E-2
-8.38462753E-5	-5.41715988E-2
-3.45249369E-5	-5.43708570E-2
-1.13439078E-4	-5.45212871E-2
-5.42534722E-5	-5.46657986E-2
-8.87784091E-5	-5.48088305E-2
-5.91856061E-5	-5.49513692E-2
-4.93213384E-5	-5.50899621E-2
-9.37105429E-5	-5.52295415E-2
-6.90498737E-5	-5.53873698E-2
-7.89141414E-5	-5.55856416E-2
-8.87784091E-5	-5.57375513E-2
-4.93213384E-5	-5.58756510E-2
-3.94570707E-5	-5.60112847E-2
-6.90498737E-5	-5.61557962E-2
-1.28235480E-4	-5.63042535E-2
-1.03574811E-4	-5.64482718E-2
-4.43892045E-5	-5.65898240E-2
-4.93213384E-5	-5.67826705E-2
-2.95928030E-5	-5.69345802E-2
-5.91856061E-5	-5.70800781E-2
-1.33167614E-4	-5.72305082E-2
-4.93213384E-5	-5.73769926E-2
-6.90498737E-5	-5.75229837E-2
-6.90498737E-5	-5.76719342E-2
-5.91856061E-5	-5.78159525E-2
-6.41177399E-5	-5.80087989E-2
-1.13439078E-4	-5.81538037E-2
-8.38462753E-5	-5.83002880E-2
-7.39820076E-5	-5.84507181E-2
-6.90498737E-5	-5.85927636E-2
-7.89141414E-5	-5.87412208E-2
-6.41177399E-5	-5.88886916E-2
-1.08506944E-4	-5.90361624E-2
-7.89141414E-5	-5.92201310E-2
-5.91856061E-5	-5.93690814E-2
-5.42534722E-5	-5.95135930E-2
-4.43892045E-5	-5.96571181E-2
-5.91856061E-5	-5.97927517E-2
-6.41177399E-5	-5.99456479E-2
-1.28235480E-4	-6.00990372E-2
-5.42534722E-5	-6.02450284E-2
-4.93213384E-5	-6.04373816E-2
-4.43892045E-5	-6.05823864E-2
-8.38462753E-5	-6.07342961E-2
-3.94570707E-5	-6.08807805E-2
-1.08506944E-4	-6.10277580E-2
-6.90498737E-5	-6.11633917E-2
-5.91856061E-5	-6.13143150E-2
-6.90498737E-5	-6.14612926E-2
-3.94570707E-5	-6.16516730E-2
-3.94570707E-5	-6.18075284E-2
-7.89141414E-5	-6.19485874E-2
-5.91856061E-5	-6.20975379E-2
-1.47964015E-5	-6.22450087E-2
-9.37105429E-5	-6.23525292E-2
-5.42534722E-5	-6.24960543E-2
-3.94570707E-5	-6.26400726E-2
-8.87784091E-5	-6.28368647E-2
-9.86426768E-5	-6.29882813E-2
-5.91856061E-5	-6.31367385E-2
-5.91856061E-5	-6.32802636E-2
-6.90498737E-5	-6.34272412E-2
-5.42534722E-5	-6.35732323E-2
-5.42534722E-5	-6.37241556E-2
-1.23303346E-4	-6.38681739E-2
-6.41177399E-5	-6.40615136E-2
-4.93213384E-5	-6.42065183E-2
-5.91856061E-5	-6.43510298E-2
-5.42534722E-5	-6.44980074E-2
-9.86426768E-5	-6.46494239E-2
-4.93213384E-5	-6.47949219E-2
-4.93213384E-5	-6.49394334E-2
-4.43892045E-5	-6.50859178E-2
-2.95928030E-5	-6.52802438E-2
-5.91856061E-5	-6.54203164E-2
-1.13439078E-4	-6.55653212E-2
-7.39820076E-5	-6.57024345E-2
-6.41177399E-5	-6.58365885E-2
-7.89141414E-5	-6.59929372E-2
-5.91856061E-5	-6.61487926E-2
-7.39820076E-5	-6.62952770E-2
-6.90498737E-5	-6.64856574E-2
-1.18371212E-4	-6.66306621E-2
-4.93213384E-5	-6.67801057E-2
-8.87784091E-5	-6.69260969E-2
-5.42534722E-5	-6.70740609E-2
-6.41177399E-5	-6.72087082E-2
-5.42534722E-5	-6.73566722E-2
-1.67692551E-4	-6.75075955E-2
-5.42534722E-5	-6.77038944E-2
-6.41177399E-5	-6.78538313E-2
-4.93213384E-5	-6.79939039E-2
-4.93213384E-5	-6.81453204E-2
-5.42534722E-5	-6.82863794E-2
-3.94570707E-5	-6.84377959E-2
-7.39820076E-5	-6.85610993E-2
-1.03574811E-4	-6.87011719E-2
-3.94570707E-5	-6.88940183E-2
-6.41177399E-5	-6.90419823E-2
-8.87784091E-5	-6.91933988E-2
-6.41177399E-5	-6.93388968E-2
-5.91856061E-5	-6.94858744E-2
-9.37105429E-5	-6.96303859E-2
-8.87784091E-5	-6.97768703E-2
-7.39820076E-5	-6.99203954E-2
-3.94570707E-5	-7.01176807E-2
-5.91856061E-5	-7.02621922E-2
-3.94570707E-5	-7.04076902E-2
-9.86426768E-5	-7.05541746E-2
-5.91856061E-5	-7.07026318E-2
-6.90498737E-5	-7.08505958E-2
-4.43892045E-5	-7.09941209E-2
-6.90498737E-5	-7.11415917E-2
-8.38462753E-5	-7.13339449E-2
-1.03574811E-4	-7.14828954E-2
-5.91856061E-5	-7.16283933E-2
-7.89141414E-5	-7.17620541E-2
-4.43892045E-5	-7.18947285E-2
-6.90498737E-5	-7.20525568E-2
-8.38462753E-5	-7.22044665E-2
-9.37105429E-5	-7.23504577E-2
-1.23303346E-4	-7.25447838E-2
-6.41177399E-5	-7.26814039E-2
-1.03574811E-4	-7.28352865E-2
-9.86426768E-5	-7.29807844E-2
-1.52896149E-4	-7.31282552E-2
-1.77556818E-4	-7.32633957E-2
-1.08506944E-4	-7.34118529E-2
-1.52896149E-4	-7.35662287E-2
-1.33167614E-4	-7.37595683E-2
-1.77556818E-4	-7.39060527E-2
-1.47964015E-4	-7.40446457E-2
-1.92353220E-4	-7.41990215E-2
-2.07149621E-4	-7.43400805E-2
-2.26878157E-4	-7.44845920E-2
-2.26878157E-4	-7.46172664E-2
-1.97285354E-4	-7.47543797E-2
-2.26878157E-4	-7.49403212E-2
-2.90995896E-4	-7.50907513E-2
-3.30452967E-4	-7.52397017E-2
-3.00860164E-4	-7.53842132E-2
-3.45249369E-4	-7.55321772E-2
-3.55113636E-4	-7.56776752E-2
-4.14299242E-4	-7.58207071E-2
-3.79774306E-4	-7.59696575E-2
-3.40317235E-4	-7.61625039E-2
-3.69910038E-4	-7.63055358E-2
-4.38959912E-4	-7.64554727E-2
-4.38959912E-4	-7.66014639E-2
-4.48824179E-4	-7.67474550E-2
-4.63620581E-4	-7.68988715E-2
-4.68552715E-4	-7.70404238E-2
-4.34027778E-4	-7.71869081E-2
-4.93213384E-4	-7.73743292E-2
-4.88281250E-4	-7.75291982E-2
-5.03077652E-4	-7.76732165E-2
-4.93213384E-4	-7.78118095E-2
-5.32670455E-4	-7.79287011E-2
-5.37602588E-4	-7.80825836E-2
-5.52398990E-4	-7.82280816E-2
-6.06652462E-4	-7.83735795E-2
-7.10227273E-4	-7.85703717E-2
-7.15159407E-4	-7.87129104E-2
-8.58191288E-4	-7.88613676E-2
-8.82851957E-4	-7.90078520E-2
-9.32173295E-4	-7.91484178E-2
-9.76562500E-4	-7.92924361E-2
-2.76663116E-1	-7.95508799E-2
-2.82882536E-1	-7.97767716E-2
-2.84638376E-1	-7.99710977E-2
-2.86073627E-1	-8.01220210E-2
-2.87355982E-1	-8.02685054E-2
-2.88623540E-1	-8.04159762E-2
-2.89999605E-1	-8.05634470E-2
-2.91336214E-1	-8.07089449E-2
-2.92579111E-1	-8.08539497E-2
-2.93905855E-1	-8.09989544E-2
-2.95656763E-1	-8.11844026E-2
-2.96953914E-1	-8.13382852E-2
-2.98329979E-1	-8.14872356E-2
-2.99750434E-1	-8.16312539E-2
-3.01156092E-1	-8.17802044E-2
-3.02413786E-1	-8.19271820E-2
-3.03720802E-1	-8.20731731E-2
-3.05126460E-1	-8.22206439E-2
-3.06897096E-1	-8.24125039E-2
-3.08209044E-1	-8.25599747E-2
-3.09565380E-1	-8.27059659E-2
-3.10956242E-1	-8.28539299E-2
-3.12386561E-1	-8.30023872E-2
-3.13659051E-1	-8.31498580E-2
-3.14961135E-1	-8.32968355E-2
-3.16376657E-1	-8.34423335E-2
-3.18162090E-1	-8.36351799E-2
-3.19577612E-1	-8.37836372E-2
-3.20889560E-1	-8.39306147E-2
-3.22270557E-1	-8.40756195E-2
-3.23626894E-1	-8.42028685E-2
-3.24993095E-1	-8.43592172E-2
-3.26462871E-1	-8.45061948E-2
-3.27755090E-1	-8.46536656E-2
-3.29560251E-1	-8.48514441E-2
-3.30980705E-1	-8.49949692E-2
-3.32411024E-1	-8.51478654E-2
-3.33772293E-1	-8.52938565E-2
-3.35015191E-1	-8.54368884E-2
-3.36410985E-1	-8.55656171E-2
-3.37846236E-1	-8.57303504E-2
-3.39355469E-1	-8.58793008E-2
-3.41249408E-1	-8.60736269E-2
-3.42521899E-1	-8.62240570E-2
-3.43848643E-1	-8.63685685E-2
-3.45264165E-1	-8.65165325E-2
-3.46679687E-1	-8.66615372E-2
-3.48085346E-1	-8.68095013E-2
-3.49560054E-1	-8.69530264E-2
-3.50881866E-1	-8.70940854E-2
-3.52637705E-1	-8.72632576E-2
-3.54107481E-1	-8.74146741E-2
-3.55453954E-1	-8.75670770E-2
-3.56938526E-1	-8.77106021E-2
-3.58368845E-1	-8.78605390E-2
-3.59813960E-1	-8.80085030E-2
-3.61194957E-1	-8.81613991E-2
-3.62620344E-1	-8.82911143E-2
-3.64583333E-1	-8.84869200E-2
-3.65890349E-1	-8.86373501E-2
-3.67291075E-1	-8.87789023E-2
-3.68775647E-1	-8.89426491E-2
-3.70220762E-1	-8.90837082E-2
-3.71660945E-1	-8.92351247E-2
-3.73012350E-1	-8.93835819E-2
-3.74487058E-1	-8.95345052E-2
-3.76395794E-1	-8.97303109E-2
-3.77890230E-1	-8.98703835E-2
-3.79325481E-1	-9.00227865E-2
-3.80810054E-1	-9.01584201E-2
-3.82269965E-1	-9.03058909E-2
-3.83749605E-1	-9.04351128E-2
-3.85258838E-1	-9.05845565E-2
-3.86733546E-1	-9.07310409E-2
-3.88745857E-1	-9.09263534E-2
-3.90294547E-1	-9.10738242E-2
-3.91769255E-1	-9.12227746E-2
-3.93332741E-1	-9.13702454E-2
-3.94837042E-1	-9.15162366E-2
-3.96331479E-1	-9.16513771E-2
-3.97806187E-1	-9.17949021E-2
-4.39536971E-1	-9.19714725E-2
-4.42831637E-1	-9.21771425E-2
-4.44548019E-1	-9.23260930E-2
-4.46185488E-1	-9.24725773E-2
-4.47798295E-1	-9.26180753E-2
-4.49346985E-1	-9.27650529E-2
-4.51117622E-1	-9.29130169E-2
-4.52592330E-1	-9.30585148E-2
-4.54081834E-1	-9.31995739E-2
-4.56044823E-1	-9.33855153E-2
-4.60488676E-1	-9.35428504E-2
-4.62683475E-1	-9.36913076E-2
-4.64222301E-1	-9.38387784E-2
-4.65795652E-1	-9.39813171E-2
-4.67280224E-1	-9.41327336E-2
-4.68991675E-1	-9.42811908E-2
-4.70569957E-1	-9.44232363E-2
-4.72666114E-1	-9.46155895E-2
-4.74214804E-1	-9.47571417E-2
-4.75985440E-1	-9.49080650E-2
-4.77504538E-1	-9.50599747E-2
-4.79082820E-1	-9.52079388E-2
-4.91279987E-1	-9.53499842E-2
-4.93603022E-1	-9.55033736E-2
-4.95181305E-1	-9.56498580E-2
-4.97445155E-1	-9.58451705E-2
-4.98850813E-1	-9.59926413E-2
-5.00369910E-1	-9.61391256E-2
-5.01918600E-1	-9.62826507E-2
-5.03452494E-1	-9.64286419E-2
-5.05129419E-1	-9.65810448E-2
-5.06796480E-1	-9.67211174E-2
-5.08335306E-1	-9.68666154E-2
-5.10406802E-1	-9.70589686E-2
-5.11965357E-1	-9.72098919E-2
-5.13617622E-1	-9.73583491E-2
-5.15112058E-1	-9.75038471E-2
-5.16719934E-1	-9.76503314E-2
-5.18298217E-1	-9.77913905E-2
-5.19886364E-1	-9.79408341E-2
-5.22002249E-1	-9.80858389E-2
-5.24379538E-1	-9.82846039E-2
-5.26184699E-1	-9.84320747E-2
-5.27718592E-1	-9.85775726E-2
-5.29060133E-1	-9.87255366E-2
-5.30584162E-1	-9.88720210E-2
